"","TH_NB_AIC","TH_P_AIC","TH_ZINB_AIC","TH_ZIP_AIC","TH_HNB_AIC","TH_HP_AIC","BestModel"
"OTU24452",NA,"386.663725549964","109.525972219699","107.524550331817","134.495723490299","132.495797521946","TH_ZIP_AIC"
"OTU27115.aic","4558.18164372165","4556.98296041597","444.032140468954","998.414155112519","444.32487075897","998.558152275784","TH_ZINB_AIC"
"OTU27511.aic","137.468604195884","330.858434462431","105.835278865288","106.559474694875","115.358803239571","113.359197234926","TH_ZINB_AIC"
"OTU32230.aic","876.092203820799","3625.29700396424","821.900713573314","1429.1772761412","822.460281705957","1429.24301590593","TH_ZINB_AIC"
"OTU23510.aic","253.569650873545","636.350384878964","215.442821258933","218.900835535211","216.355824016513","219.787643510857","TH_ZINB_AIC"
"OTU27052.aic","1045.99540360182","3166.82665608344","927.137380566468","1405.10844078351","927.971480060718","1405.12392295453","TH_ZINB_AIC"
"OTU27035.aic","969.899546542565","10813.546071697","924.646626195554","4360.70349702879","924.688997569555","4360.70383530368","TH_ZINB_AIC"
"OTU27087.aic","495.621651957646","2458.15592588758","470.172930005779","839.972541977723","471.1804931581","840.393129158914","TH_ZINB_AIC"
"OTU30427.aic","1646.0480701793","1644.17850720374","468.434225739431","601.646240462887","468.758830299215","601.700485263212","TH_ZINB_AIC"
"OTU13610.aic","417.654510372984","1819.00081522123",NA,NA,"355.520731125164","970.499526391831","TH_HNB_AIC"
"OTU23188.aic","1104.22071715663","5285.49787925958","969.865424023995","2905.78962140373","1033.94705725614","2905.748506211","TH_ZINB_AIC"
"OTU30174.aic","1118.14674075292","8905.51443043014","1083.91853497375","4787.9214309148","1083.51009183161","4787.75370681878","TH_HNB_AIC"
"OTU33603.aic","1065.09262619575","6769.77839827384","1038.18436384108","3227.49050344674","1038.81652827175","3227.4949911391","TH_ZINB_AIC"
"OTU17672.aic","760.006285271879","4071.13556391997","734.831405124488","1919.55411032099","735.214903770125","1919.56359697778","TH_ZINB_AIC"
"OTU11882.aic","907.322084999876","905.412582955171","184.478010291784","210.142824496439","238.248424100556","263.750157641902","TH_ZINB_AIC"
"OTU24342.aic","715.983867010545","2011.96415844436","654.969820140081","900.958519440519","655.511491928423","901.085254256745","TH_ZINB_AIC"
"OTU9317.aic","1672.08440737096","15274.874769861","1619.25568179629","12659.242579968","1619.63568183558","12659.1428886618","TH_ZINB_AIC"
"OTU24104.aic","1389.31563707895","11173.9299668126","1360.29041445837","6183.69805090132","1361.05142845307","6183.7009436314","TH_ZINB_AIC"
"OTU21270.aic","215.168110360323","596.747923363354","202.085308264846","202.64405705653","202.229518412467","202.74339346126","TH_ZINB_AIC"
"OTU4166.aic","317.533927551296","929.837109950513","277.505439498665","297.2892358167","278.302679978111","298.09312966163","TH_ZINB_AIC"
"OTU27321.aic","313.704189624913","863.095543373429","268.11190385994","266.862581389633","268.291923469423","267.006804111353","TH_ZIP_AIC"
"OTU26374.aic","873.143692147641","2180.24822375943","782.637499338972","917.452314837223","783.124541754041","917.523748217855","TH_ZINB_AIC"
"OTU30357.aic","728.118978801533","726.170244539244","301.242595623947","299.25121929504","301.863255720408","299.865793563094","TH_ZIP_AIC"
"OTU18254.aic","743.368601661175","741.461448967225","188.345091079347","186.345083936612","189.816498213965","188.07301090868","TH_ZIP_AIC"
"OTU4959.aic","1356.83026477727","25979.4607941188","1274.89488065387","14271.8238961216","1275.46348341816","14271.8238954923","TH_ZINB_AIC"
"OTU19453.aic","1233.55018995726","1231.61021550679","393.104060204524","420.928215485377","393.729004658643","421.38962870938","TH_ZINB_AIC"
"OTU8181.aic","172.258389137104","295.924059922986","147.726644942529","154.624756447171","148.588865376413","155.539319654728","TH_ZINB_AIC"
"OTU17708",NA,"1838.87314801239","231.407153201419","708.670980023129","246.98197928769","704.799471721864","TH_ZINB_AIC"
"OTU544.aic","3377.07167436928","3375.22607638668","407.138842102107","606.690905226961","407.697127615627","606.78225204579","TH_ZINB_AIC"
"OTU661.aic","10420.2354916781","1224.44412432727","246.87791798727","287.693108171695","247.795474110474","288.156622220779","TH_ZINB_AIC"
"OTU5442.aic","663.107866890728","661.126088289177","175.912799067285","178.238956572515","180.818076320149","179.505435287789","TH_ZINB_AIC"
"OTU32975.aic","147.659938104182","351.358358609956","128.948324021485","133.423474111631","136.291136649261","134.290331857628","TH_ZINB_AIC"
"OTU3691.aic","231.629062363871","577.403632725148","191.69442382922","189.69442360435","192.199829369355","190.199198488513","TH_ZIP_AIC"
"OTU23903",NA,"525.108662587727","241.907350944046","299.013375874922","242.013980657042","299.080361548254","TH_ZINB_AIC"
"OTU11968.aic","879.505692547187","877.564762111686",NA,NA,NA,NA,"TH_P_AIC"
"OTU5333.aic","421.454727257189","975.326175560765","310.417994700703","342.500231974417","310.354886217924","342.456939136235","TH_HNB_AIC"
"OTU3058.aic","1282.58667252725","1280.62782232585","397.891292847596","470.415838798854","399.130959661329","471.128375693711","TH_ZINB_AIC"
"OTU17991.aic","341.994964355926","705.716368794939","279.883915372889","277.909705015149","279.901326010216","277.927132082633","TH_ZIP_AIC"
"OTU18597",NA,"4152.46896684015",NA,NA,NA,NA,"TH_P_AIC"
"OTU22911.aic","398.604548532931","2372.81413257275","304.923138543681","388.843717675927","305.000124830564","388.898959998961","TH_ZINB_AIC"
"OTU13556.aic","555.287231354754","1958.80358601479","505.860855324826","696.317522715666","505.934726057822","696.338637854171","TH_ZINB_AIC"
"OTU30134.aic","1642.21696713007","4685.15655396159","1536.95860913154","3752.85119054308","1538.06783864876","3752.84901632791","TH_ZINB_AIC"
"OTU523.aic","7199.83091181796","7198.6615516212","821.088972694521","2273.32556015542","821.925369656253","2273.32556021539","TH_ZINB_AIC"
"OTU758.aic","1317.02734553011","1315.20299267432","250.809139700678","307.047358641364","251.023417450176","307.088883125492","TH_ZINB_AIC"
"OTU13602.aic","1025.5414054045","3048.05180434555","890.674499226346","1169.72103875781","890.681984881181","1169.72100136521","TH_ZINB_AIC"
"OTU656.aic","276.182619192856","1560.47044492745",NA,NA,"272.168671718486",NA,"TH_HNB_AIC"
"OTU13822.aic","368.774713303148","993.633070428402","312.674222292897","324.634768690231","312.954902357379","324.785416637823","TH_ZINB_AIC"
"OTU5245.aic","219.762390700509","696.970433694395","155.211983666063","160.222358899926","187.96824718414","192.937235307225","TH_ZINB_AIC"
"OTU20072",NA,"728.490927295161","263.545454943613","380.721277659211","263.546411190935","378.806521481133","TH_ZINB_AIC"
"OTU27863.aic","2318.84457466286","2316.96695380015","652.159466087655","854.865842943738","652.500135288127","854.856055620262","TH_ZINB_AIC"
"OTU5309.aic","597.771413313225","595.779656734564","241.398880113413","239.398878285323","241.916023763303","239.915930006639","TH_ZIP_AIC"
"OTU27139.aic","518.401452708219","2152.80007826734","461.000986796918","689.050958231576","487.237993870887","689.502157862864","TH_ZINB_AIC"
"OTU5229.aic","585.265624138764","7380.06821523026","574.598710469846","3477.7963996149","576.08709620093","3477.80220758619","TH_ZINB_AIC"
"OTU17858.aic","1867.65159330377","1865.8463759666","204.721640129858","262.154901439008","297.475525073481","354.928883085649","TH_ZINB_AIC"
"OTU15316.aic","564.727633384352","1987.12542955097","504.387347902213","792.190482902617","504.995885761716","792.492099157137","TH_ZINB_AIC"
"OTU19618.aic","471.849221628159","469.889772136527","102.201479589526","100.775001029454","107.621858483334","105.652616459115","TH_ZIP_AIC"
"OTU5038.aic","805.316109885602","4379.0401178496","754.37308452466","1484.26857727076","754.535533095586","1484.29995377394","TH_ZINB_AIC"
"OTU3431.aic","905.938234154013","3511.13817386548","848.076102056626","1612.20940899017","848.972259981532","1612.80775906977","TH_ZINB_AIC"
"OTU13683.aic","1938.40475098789","1936.49342157227","728.76944392145","818.666498041019","729.255301257691","818.748916169111","TH_ZINB_AIC"
"OTU13818.aic","576.627484338242","574.652607102066","151.042791605851","149.067825173116","177.344981125838","175.344564376169","TH_ZIP_AIC"
"OTU31143.aic","722.530328574241","720.574812991046","244.033574913066","225.670826716772","228.052820182793","226.052587319401","TH_ZIP_AIC"
"OTU7179.aic","456.134066495389","1094.53657162862","395.943887846335","402.873048284445","396.308128057105","403.087361143379","TH_ZINB_AIC"
"OTU261.aic","1297.49428893219","7984.89665613758","1236.34807439774","4497.95353051445","1236.48764747752","4497.95372681191","TH_ZINB_AIC"
"OTU20424.aic","417.528229565014","1021.07195708161","345.497176978764","540.549351347846","345.396472790277","540.535959585757","TH_HNB_AIC"
"OTU30130.aic","1763.10022706347","5596.08197519268","1605.17565560499","4376.55089879631","1646.24020900766","4376.55089321138","TH_ZINB_AIC"
"OTU17040.aic","1258.67825099174","1256.77636381004",NA,"326.012584937077","281.6087334791","402.599579515723","TH_HNB_AIC"
"OTU5314.aic","150.035846193521","403.517170164519",NA,NA,NA,NA,"TH_NB_AIC"
"OTU17456.aic","1499.94413748812","7186.2236256168","1421.7272229784","5626.93996020832","1421.26736185648","5626.50166326637","TH_HNB_AIC"
"OTU14130.aic","338.229823649395","336.239876427229","112.968032447032","110.968002410172","147.158628173844","145.158451031673","TH_ZIP_AIC"
"OTU24430.aic","1035.83002616093","1033.88651265391","356.406616246912","412.131084234624","357.80714623355","412.97646921574","TH_ZINB_AIC"
"OTU27389.aic","171.737953040246","507.401804984717","129.231685767984","152.4124607376","158.121711016908","157.408741890146","TH_ZINB_AIC"
"OTU6173.aic","734.756471787418","1580.10155470991","658.025032472209","829.58182809839","658.373213104488","829.168636296595","TH_ZINB_AIC"
"OTU13873.aic","431.73390971727","1006.32757653721","361.33752764949","381.281441094862","361.667102018249","381.452848268717","TH_ZINB_AIC"
"OTU20913.aic","637.124090884347","635.17107813568","101.173198208025","104.461686644985",NA,NA,"TH_ZINB_AIC"
"OTU27206",NA,"1582.88214387573","329.291471847633","547.505960853919","329.270481108898","547.50623869407","TH_HNB_AIC"
"OTU24406",NA,"299.577726938216","138.904074521651","136.904067673599","140.210172278426","138.210098267176","TH_ZIP_AIC"
"OTU25888.aic","1039.75994640227","2946.13816799475","964.167449031198","1577.97499868232","964.428498671597","1578.00804662899","TH_ZINB_AIC"
"OTU17653.aic","1267.79265061956","5685.4842880849","1224.78656443754","3628.77688860792","1231.26819908731","3628.93196004708","TH_ZINB_AIC"
"OTU33612.aic","494.094989823992","492.12940220131","184.992073699062","167.653225042612","170.074449195071","168.074059906057","TH_ZIP_AIC"
"OTU30132.aic","2099.86949439739","13272.9551925383","1882.89398654076","8898.26020103794","1882.82620334581","8898.2602010374","TH_HNB_AIC"
"OTU21276.aic","211.07212816436","680.757822071719","189.312041169721","188.018347060497","189.529065948332","188.217896792072","TH_ZIP_AIC"
"OTU30204",NA,"4199.0857453028","1053.30724716414","2891.06761546016","1053.24990341348","2889.49255799813","TH_HNB_AIC"
"OTU10487.aic","1056.56334416333","2696.07324904941","961.100556161991","1462.16248991308","961.445208807597","1462.31954527703","TH_ZINB_AIC"
"OTU30515.aic","289.901523428736","287.911239963486","116.480163303574","114.480161328881","116.926096301288","114.925853442103","TH_ZIP_AIC"
"OTU17603.aic","952.418129083659","4756.71162741268","835.475842616466","1961.66648952531","844.095435125759","1961.66942809794","TH_ZINB_AIC"
"OTU23430.aic","488.398377705363","1690.98285846615","467.892283871817","658.746650482486","467.90320129767","658.679771309139","TH_ZINB_AIC"
"OTU30253.aic","1219.97368320336","2271.02643760705","1128.04279300209","1576.11769096065","1128.53937083902","1576.09026029489","TH_ZINB_AIC"
"OTU17967.aic","370.373399085831","368.392987212212",NA,NA,NA,NA,"TH_P_AIC"
"OTU17829.aic","811.215741486056","809.309071997399",NA,NA,"135.127862554445",NA,"TH_HNB_AIC"
"OTU27119.aic","559.931971032774","1091.1485821414","453.223615732268","458.720842947557","453.312426452875","458.787343777536","TH_ZINB_AIC"
"OTU30298.aic","506.23128195763","1772.63452691132","437.514695042971","511.657037767324","437.60981522214","511.663114826355","TH_ZINB_AIC"
"OTU13704.aic","746.257381817326","744.313670403639",NA,NA,NA,NA,"TH_P_AIC"
"OTU30470.aic","1067.52049992096","1913.29274336577","956.585760001109","1211.58809564471","965.500350208277","1211.41241638826","TH_ZINB_AIC"
"OTU24350",NA,"2045.41371280555","325.15713668111","835.192562355308","318.764508934591","841.394767141841","TH_HNB_AIC"
"OTU18323.aic","1076.6529140052","11108.3109325935","939.045082861854","4412.08927137609","966.067332300926","4412.08926328486","TH_ZINB_AIC"
"OTU30379",NA,"793.586414929041","206.417281935646","358.733642657512","207.784590567719","358.965045780422","TH_ZINB_AIC"
"OTU746.aic","319.971201490611","317.97489424317",NA,NA,NA,NA,"TH_P_AIC"
"OTU15462.aic","638.890714424494","1301.57959336714","530.100510872959","539.10672331088","530.211715292397","539.180031018929","TH_ZINB_AIC"
"OTU22024",NA,"1692.35721678424","224.664364289538","231.922805321317","233.181290126185","234.648020637652","TH_ZINB_AIC"
"OTU26388.aic","403.25409140366","673.783457843067","291.364579845232","292.744752840719","291.443476948479","292.821779224761","TH_ZINB_AIC"
"OTU31135.aic","584.78354650893","582.811608720575","227.292794548401","225.292793310917","227.713867854535","225.712866528706","TH_ZIP_AIC"
"OTU30293.aic","3397.5089098271","3395.85703370451","637.614422802259","940.57991160268","637.978249554166","940.584677783002","TH_ZINB_AIC"
"OTU30024.aic","280.003355641594","486.047256323561","259.898798675807","364.601254371817","259.876677887969","364.5956441295","TH_HNB_AIC"
"OTU30183.aic","9730.46386177093","9728.96397909455","735.639053384994","2474.92669892661","735.977512938697","2475.13469698236","TH_ZINB_AIC"
"OTU32920.aic","1351.31127978308","3485.04129307806","1237.51864302615","2348.58262903572","1237.82629389683","2348.58231906155","TH_ZINB_AIC"
"OTU23105.aic","452.582330515026","450.61160919238",NA,NA,NA,NA,"TH_P_AIC"
"OTU17049.aic","2420.05560965078","17132.8456461403",NA,NA,"2418.48038746044","16396.2400871885","TH_HNB_AIC"
"OTU25955.aic","222.601646794472","220.608580312525","114.279968086486","112.184419349588","115.497813489334","113.497520747558","TH_ZIP_AIC"
"OTU27053",NA,"3533.31134105683","487.849329721063","776.995973616773","488.608152294392","777.444221722234","TH_ZINB_AIC"
"OTU32852.aic","653.76441915328","1188.64505850782","571.274221310411","579.644746310748","572.24382432158","580.446735161032","TH_ZINB_AIC"
"OTU779.aic","207.777898922114","835.125647616684","187.672664460779","237.847692016664","193.562581694111","238.335644366279","TH_ZINB_AIC"
"OTU4981.aic","1496.56492974478","10456.9106903177","1400.13434955696","6376.49472268456","1399.70007495318","6376.49472253319","TH_HNB_AIC"
"OTU30529",NA,"754.643625484929","274.515162499954","277.052561222931","274.576912506056","277.119141980866","TH_ZINB_AIC"
"OTU22817.aic","268.631723745447","605.919252694835","232.020255654218","230.020254191995","232.411812033671","230.411804887183","TH_ZIP_AIC"
"OTU29662.aic","1724.27928574318","5879.1625549882","1711.06797714686","5368.83261558855","1710.13921026247","5368.8325962694","TH_HNB_AIC"
"OTU11904.aic","1046.24317275011","1044.28608823802","382.756413527072","397.952229573668","383.268248113005","398.26473461839","TH_ZINB_AIC"
"OTU31117.aic","738.186783137324","1389.4571989045","635.543311369441","663.256098860608","636.244987709013","663.674324304925","TH_ZINB_AIC"
"OTU17519.aic","1888.87785073628","6521.60895099041","1888.52470915555","6152.90375520708","1883.73900850927","6152.90374080185","TH_HNB_AIC"
"OTU4090.aic","1780.89852928137","1779.01564235141","460.89247109258","535.068835992129","460.968293760423","535.054843824912","TH_ZINB_AIC"
"OTU30194.aic","1407.97970979879","6173.72055517144","1296.94219973652","2868.97790853209","1297.54263468656","2868.72474964979","TH_ZINB_AIC"
"OTU24348.aic","386.848788083034","1766.49132051745","363.331337013134","485.918658361291","365.562584036687","487.912733339618","TH_ZINB_AIC"
"OTU5486.aic","169.020333456346","669.211124392658","157.606001439423","157.412521444353","158.948946148443","158.776729088965","TH_ZIP_AIC"
"OTU13858.aic","188.343454661027","498.866895698375","150.212764482205","146.18081037874","148.239313273375","146.23928932755","TH_ZIP_AIC"
"OTU32779.aic","891.536921697097","2454.11755878614","775.253200737636","965.367012874075","775.417971544416","965.39798850224","TH_ZINB_AIC"
"OTU19920.aic","869.246999751224","2597.46860687113","781.420535011927","1054.29993346915","781.75027961028","1054.39656738853","TH_ZINB_AIC"
"OTU17021.aic","1317.00121607594","3521.44245251197","1249.97609081468","2303.44851602276","1251.41747963885","2303.70928111314","TH_ZINB_AIC"
"OTU24388.aic","216.714740633681","445.940110552348","154.514997963931","160.064164799872","162.202871067639","167.752191883311","TH_ZINB_AIC"
"OTU21724.aic","511.893703921035","1264.47882010496","455.553108808359","475.819564599516","456.470367846385","476.541832257805","TH_ZINB_AIC"
"OTU27168.aic","262.714759982839","969.034115377079","199.977662588144","274.901258493808","228.822696355934","303.801311094461","TH_ZINB_AIC"
"OTU21021.aic","127.136006844571","280.884631805407","100.165453120483","98.5659441742898",NA,"123.599284712342","TH_ZIP_AIC"
"OTU14629.aic","518.198394256295","516.222188151994","213.043350713868","211.043350213592","213.558880809515","211.558317211574","TH_ZIP_AIC"
"OTU13707.aic","762.582883731069","4025.70319545364","711.966871156605","1730.48644806708","712.820253993972","1730.57070758278","TH_ZINB_AIC"
"OTU14359.aic","307.517394579527","776.621675163538","258.630308707287","276.59020094051","258.631485276893","276.606948731263","TH_ZINB_AIC"
"OTU30409.aic","297.925485605689","687.883143015964","248.853566361143","246.853564911718","248.935828819273","246.93576872803","TH_ZIP_AIC"
"OTU24370.aic","479.548174521427","1382.92357505555","411.147172152562","430.453593622402","412.498301264748","430.580011629539","TH_ZINB_AIC"
"OTU5178.aic","1981.51917952206","1979.72064253939","196.222875426883","377.127597106557","281.720292228578",NA,"TH_ZINB_AIC"
"OTU828.aic","525.606474033091","523.628099977298","120.84967971885","118.849619838759","173.143547334546",NA,"TH_ZIP_AIC"
"OTU13848.aic","232.048644649962","1260.72160191275","169.715203713981","226.083261233843","226.303368843389","282.035946666092","TH_ZINB_AIC"
"OTU27172.aic","286.145007119618","697.382863654742","203.479770449105","237.206402697068","207.992109100113","237.405802314082","TH_ZINB_AIC"
"OTU4983.aic","11038.0884579867","11038.0675102127",NA,"621.086122677276","369.549710303606","621.086842526176","TH_HNB_AIC"
"OTU25918.aic","1359.92404065921","1358.01818271085","521.620799546452","525.570282110454","521.671949173686","525.568512851632","TH_ZINB_AIC"
"OTU27224.aic","1000.209686137","15732.3588903787","929.674828295623","6280.8470565194","949.504658245963","6280.85250457764","TH_ZINB_AIC"
"OTU30716.aic","261.639575570567","579.912701246649","224.212256476221","233.559647032521","233.353138731102","233.890604626396","TH_ZINB_AIC"
"OTU16788.aic","437.982458567945","436.002302628179","108.351188543636","106.350480192224","143.314163591466","141.314094356927","TH_ZIP_AIC"
"OTU5559",NA,"1270.70407302322","837.169705481742","941.550052718151","836.540812145977","938.948326550237","TH_HNB_AIC"
"OTU12010.aic","197.952207873633","512.160375442254","175.390897158429","173.390896963535","175.512150439006","173.512053966541","TH_ZIP_AIC"
"OTU33070.aic","130.460733477725","128.462733383596","77.723467775705","75.7234677075279","77.8926395836913","75.8925896529114","TH_ZIP_AIC"
"OTU17537.aic","210.436012167507","1257.08377048484","198.716561092988","358.082351591684","205.774136295441","358.525407628817","TH_ZINB_AIC"
"OTU17596.aic","668.038827904243","2505.14345375156","632.065263810317","1054.87485526944","632.823078471219","1054.88047860927","TH_ZINB_AIC"
"OTU24366.aic","218.39879310805","644.579106771597","203.825778948178","185.749169253207","188.399319378302","186.919106155216","TH_ZIP_AIC"
"OTU30861.aic","277.714975950168","525.231251047149","219.783008772052","217.783007088004","220.028539370187","218.027583436593","TH_ZIP_AIC"
"OTU13738",NA,"1666.3420196418","703.375608296082","856.022427754177","703.299073088523","855.717039282138","TH_HNB_AIC"
"OTU25979.aic","172.65142234428","421.549140073537","115.116716762019","113.116634945916","144.269497453665","142.269194926436","TH_ZIP_AIC"
"OTU7825.aic","247.008416495286","589.154272535728","219.548220625095","217.548219196285","219.982732366428","217.982649000054","TH_ZIP_AIC"
"OTU749.aic","217.817431397145","819.841467592584","215.039701669874","237.995563906457","215.29715627888","238.103906523695","TH_ZINB_AIC"
"OTU32513.aic","2052.93817457576","12568.687330166",NA,NA,NA,NA,"TH_NB_AIC"
"OTU18021.aic","157.96033413184","411.612397425368","130.643127149333","128.643125036139","130.8031339631","128.802375770767","TH_ZIP_AIC"
"OTU13992.aic","915.990244606975","914.031067501467","334.657329321081","342.868791524045","335.076859686665","343.251809442635","TH_ZINB_AIC"
"OTU24616.aic","345.124554591603","343.141226916658","141.681969450158","139.681968701029","141.832680853371","139.832662842597","TH_ZIP_AIC"
"OTU23642.aic","1075.24460614548","1633.56073614575","922.888751090873","969.045507328931","923.340177409531","969.337657954852","TH_ZINB_AIC"
"OTU12581.aic","1474.53879837462","3164.73452585469","1337.8514415824","2240.63089425858","1337.60832488261","2240.3085128611","TH_HNB_AIC"
"OTU27077.aic","217.290674186875","740.922593206816",NA,NA,NA,NA,"TH_NB_AIC"
"OTU171.aic","607.262474297546","605.276598587908","135.550633482283","143.854724889734",NA,NA,"TH_ZINB_AIC"
"OTU17795.aic","578.006654210765","1456.18111301415","524.296228476468","573.256790214917","524.859366959114","573.556931638678","TH_ZINB_AIC"
"OTU17540.aic","1510.73278229638","3598.0590275242","1432.37158701005","2651.10536474625","1433.71600950332","2651.16379043938","TH_ZINB_AIC"
"OTU15441.aic","579.966854436854","1877.58109349522","537.469699438483","673.83841360578","538.198932252723","673.925703387977","TH_ZINB_AIC"
"OTU13896.aic","1905.24851199198","10077.0116891007","1833.57554961994","8397.59086925437","1864.9540946605","8397.59086924735","TH_ZINB_AIC"
"OTU27234.aic","296.634847202557","1148.39602441767","265.403246648835","366.312514413353","265.339563539003","366.307716745129","TH_HNB_AIC"
"OTU33579.aic","737.025693432952","735.064941787499","269.732988708546","267.732987697137","269.916533423005","267.916521748264","TH_ZIP_AIC"
"OTU20461.aic","321.41450034663","856.603044154866","292.454988146445","301.681841296639","292.72444334196","301.845795779375","TH_ZINB_AIC"
"OTU29911.aic","686.96996145705","1475.46483994932","604.289533891079","704.006763092432","604.723074173922","704.162905714061","TH_ZINB_AIC"
"OTU5014.aic","1144.85503265648","3890.74506528607","1075.29577731293","2642.01215455559","1075.68891878852","2641.48498632321","TH_ZINB_AIC"
"OTU6010.aic","771.227339916175","2314.4728875346","690.483747328279","1141.01146057965","690.572332161797","1140.84394157558","TH_ZINB_AIC"
"OTU25855.aic","690.038635202365","1942.14571066439","630.376258018122","797.705086673231","630.688015627018","797.821630975295","TH_ZINB_AIC"
"OTU22102.aic","1070.4302639279","2396.9412101955","963.512351009286","1160.40473658387","963.951118869006","1160.47186505099","TH_ZINB_AIC"
"OTU21239.aic","1580.83243835799","8441.82182426684","1506.03770591952","6375.08077694668","1506.24848150042","6375.08077837957","TH_ZINB_AIC"
"OTU5239.aic","532.823070164878","1404.78928120209","469.477023003424","554.100660108884","469.603632274914","554.106255451328","TH_ZINB_AIC"
"OTU5596.aic","411.154694227851","409.17705215344","161.915626837621","159.915626375206","162.185876003641","160.185169043265","TH_ZIP_AIC"
"OTU32153.aic","2183.09855960659","2181.38983887441","525.360813950031","680.606405531902","525.315201886593","680.471303835718","TH_HNB_AIC"
"OTU27202.aic","295.887307719793","293.896355122439","169.042323093879","171.397826885863","169.109364567859","171.460046411727","TH_ZINB_AIC"
"OTU5009.aic","510.668819568084","1230.29238540116","462.84560720096","488.076143017615","463.274649578066","488.418952031393","TH_ZINB_AIC"
"OTU22262.aic","316.48175878797","586.230930871129","242.330430200703","244.339320309841","242.842906584231","244.809751189304","TH_ZINB_AIC"
"OTU23195.aic","615.830208956923","2970.80963666894","586.887536537696","1086.81707849477","587.009266338868","1083.95763053174","TH_ZINB_AIC"
"OTU620.aic","494.073995774208","1507.88507037617","432.694746739082","528.456680051666","432.575064760084","528.422873056444","TH_HNB_AIC"
"OTU17037.aic","331.241589834032","805.927721809388","273.619707671038","291.034612920587","274.113821832603","291.443637951588","TH_ZINB_AIC"
"OTU32918.aic","1088.07312001567","1086.08881185722","377.830656208014","378.081159578444","378.425738740436","378.659324175106","TH_ZINB_AIC"
"OTU19346.aic","386.247771232426","792.953706981567","339.561859689657","396.948151512302","339.593773690165","396.749836924943","TH_ZINB_AIC"
"OTU31170",NA,"2488.9898008987","515.525553633361","849.732514473672","515.410770516063","849.368979194738","TH_HNB_AIC"
"OTU27059.aic","4642.61151220743","4641.23751716362",NA,"419.301271793721","333.283242232206","512.061892612678","TH_HNB_AIC"
"OTU13879",NA,"500.449196869579","160.179420852747","161.113964753755","160.517900853768","161.605239035399","TH_ZINB_AIC"
"OTU826.aic","204.700154569145","463.831976828429",NA,"133.475749892273","182.016267463988","180.946848842391","TH_ZIP_AIC"
"OTU22112.aic","595.602658651071","593.633984743119","138.932871701398","148.53616951025","183.709217540628",NA,"TH_ZINB_AIC"
"OTU17606.aic","555.011935296764","1191.34119752304","464.186306634908","588.399190911783","464.403278029172","588.472477157438","TH_ZINB_AIC"
"OTU13852.aic","2498.29416177794","2496.56184079375","435.323396411712","542.853193247815","488.52272421828","542.968582543737","TH_ZINB_AIC"
"OTU16300.aic","1450.47729748201","7121.80242181923","1398.22583969726","4745.86743326176","1397.86278270265","4745.65977004744","TH_HNB_AIC"
"OTU15314.aic","1936.86195856985","1935.02382498044","276.546882128703","435.146503053204","348.676685259324","506.740098533846","TH_ZINB_AIC"
"OTU17620.aic","709.510355717122","2548.19995706289","650.263663743399","1118.55860350653","651.071485090555","1118.93681460356","TH_ZINB_AIC"
"OTU13932.aic","814.140300040832","812.258528011478","261.746266856574","275.28158852082","262.347237974166","275.765265807408","TH_ZINB_AIC"
"OTU30191",NA,"4384.6548106434","1198.94813069638","3339.20033342118","1198.53640204214","3330.37441988852","TH_HNB_AIC"
"OTU19023.aic","165.670820620022","419.943269279655","141.895573124116","139.895570504002","147.204557560237","145.204519871816","TH_ZIP_AIC"
"OTU17767.aic","351.742671577055","1107.75939726087","301.393205126461","316.175258342561","301.520975156087","316.233324975667","TH_ZINB_AIC"
"OTU23491.aic","568.973172826394","1445.26875017423","479.551419289966","611.662205949951","480.317735278515","612.183232004551","TH_ZINB_AIC"
"OTU5114.aic","991.111203791496","3228.6993423009","888.47514050934","1663.16171909105","888.884684402138","1663.13275893076","TH_ZINB_AIC"
"OTU17555.aic","5121.08010196686","5119.82515528413","365.08232120431","732.750227190642","365.145447511643","720.103710153052","TH_ZINB_AIC"
"OTU32247.aic","351.849336438082","2145.66707354181","334.307590429257","710.199730803511","335.321319299289","710.283714894931","TH_ZINB_AIC"
"OTU864.aic","162.130534669615","367.464430463712","144.082506543362","142.082505443837","144.364506131085","142.364486268996","TH_ZIP_AIC"
"OTU10351",NA,"761.728497172675","352.598709599994","350.598708433452","353.447394350896","351.445803110169","TH_ZIP_AIC"
"OTU19674.aic","373.480154401277","969.926455593645","332.380122219386","351.667089120608","332.321144382321","351.642813621233","TH_HNB_AIC"
"OTU17035.aic","459.595787764844","1869.59367066859","416.167529705487","497.77125698202","416.121461121827","497.674742088425","TH_HNB_AIC"
"OTU32227.aic","1520.22711205629","10654.4058770409","1432.10931759498","6391.32167336289","1432.77758202693","6391.32167350381","TH_ZINB_AIC"
"OTU19458.aic","677.165822424766","2287.74435970534","629.087589870141","837.995297517932","629.277080373491","838.035402516224","TH_ZINB_AIC"
"OTU19526.aic","560.672956107909","1327.44927371161","497.89172651571","522.377927315507","498.106411804007","522.491596576765","TH_ZINB_AIC"
"OTU17223",NA,"981.007634487539","473.393216057601","497.047534267196","473.563940329268","497.207339629943","TH_ZINB_AIC"
"OTU21580.aic","424.85952006522","804.62122309126","371.897860921167","401.243402040541","371.968996123299","401.248113141257","TH_ZINB_AIC"
"OTU719.aic","369.410915035204","1049.09086090711","294.325840497751","292.619907148292","294.372062530488","292.65899259792","TH_ZIP_AIC"
"OTU20421.aic","2824.71833463106","2822.85466407557","474.657710049269","612.59424313335","474.716050186552","612.608078844116","TH_ZINB_AIC"
"OTU5306.aic","417.26860178417","1548.45255409257","348.601240447488","385.644450031689","348.643649963934","385.665100937323","TH_ZINB_AIC"
"OTU30637.aic","125.960102512633","232.404714081915",NA,NA,NA,NA,"TH_NB_AIC"
"OTU23508.aic","916.523230433231","914.562560327231","256.679155585488","271.762577576905","257.352668674789","272.307768698154","TH_ZINB_AIC"
"OTU24603.aic","772.431516959216","770.537449970477","199.571182203428","211.498558071409","199.896406178967","211.76143287406","TH_ZINB_AIC"
"OTU17682",NA,"2122.06893294179","282.528494946299","315.551249572123","288.025361489119","350.624794912411","TH_ZINB_AIC"
"OTU25848.aic","1934.14202193507","8764.17194602934","1778.27812511709","5702.03507641451","1778.15916051171","5702.03494398783","TH_HNB_AIC"
"OTU30135.aic","1844.03330624093","5080.03208233084",NA,NA,"1821.6697677402","4925.54733507608","TH_HNB_AIC"
"OTU25889.aic","380.943761865122","2367.13339717088","360.478691719454","1068.01562912841","360.737904620872","1068.30027421114","TH_ZINB_AIC"
"OTU19795.aic","147.991464663908","301.185357210241","108.010811723778","106.010442619353","125.955006712481","123.954239308218","TH_ZIP_AIC"
"OTU21828.aic","291.475305788688","1064.70174504423","275.715329875432","338.417425781921","278.474314498068","340.122699682642","TH_ZINB_AIC"
"OTU27031.aic","7752.54245743249","7751.51824314687","1023.21825046196","2460.00538738472","1023.80335041128","2461.16285234722","TH_ZINB_AIC"
"OTU5640.aic","1353.04277390451","1351.23102893884","191.416392823693","203.22506059093","195.490132696683","206.546567665917","TH_ZINB_AIC"
"OTU11704.aic","1805.76081041215","14959.4236016557","1717.88553907631","7720.47024640186","1719.19640642583","7720.47397447516","TH_ZINB_AIC"
"OTU13855.aic","841.488062516786","839.557383499277",NA,NA,NA,NA,"TH_P_AIC"
"OTU20493.aic","175.135935789979","334.015334835476",NA,NA,NA,NA,"TH_NB_AIC"
"OTU17742.aic","907.658860882744","905.689285532499",NA,NA,NA,NA,"TH_P_AIC"
"OTU32797.aic","190.928166551426","408.673295705501","163.222286073927","161.222284351036","163.714565530131","161.714426574164","TH_ZIP_AIC"
"OTU33135.aic","1242.47410210311","4912.39105383613","1167.55030996077","2553.76935249332","1169.30574868357","2554.07838473221","TH_ZINB_AIC"
"OTU22097.aic","276.702468362377","767.531303871046","241.618198968013","245.354733018822","242.184855612998","245.85679281992","TH_ZINB_AIC"
"OTU23651.aic","865.998776417748","4881.42382869095","802.170333804504","2281.15071807068","801.941226138071","2281.12938204267","TH_HNB_AIC"
"OTU23198.aic","343.786733588123","818.808555399047","289.672325019265","287.882299837033","289.92173419757","288.122576381152","TH_ZIP_AIC"
"OTU884.aic","232.796765472041","230.800195458627",NA,NA,NA,NA,"TH_P_AIC"
"OTU27169.aic","2065.83646901324","2064.13765063672","324.602765552447","480.914106821772","324.766568381985","480.967998203103","TH_ZINB_AIC"
"OTU22510.aic","149.257991462594","255.713425270145","133.831950734775","139.945984041452","139.466652674563","145.470034016824","TH_ZINB_AIC"
"OTU5919.aic","511.661712073721","509.691330390025","119.159282351675","117.255418914568","153.181248305088",NA,"TH_ZIP_AIC"
"OTU13892.aic","1272.26290808991","1270.27553892416","234.430361307035","322.896181787284","293.139657591916","363.297520687444","TH_ZINB_AIC"
"OTU27133.aic","491.369640432113","1758.18453640994","445.229561241945","555.65059652776","446.026121130683","556.368160005865","TH_ZINB_AIC"
"OTU21201.aic","236.921804351322","618.030057819499","220.489746976794","221.086971000723","221.09523615891","221.640313715256","TH_ZINB_AIC"
"OTU19240.aic","532.06289574524","1938.43403398195","463.953733623236","615.439157601049","464.134887906413","615.456307746766","TH_ZINB_AIC"
"OTU32533.aic","2461.40555242359","35611.0302565397",NA,NA,"2406.17577010041","32847.1597545123","TH_HNB_AIC"
"OTU27193.aic","2100.18810447445","2098.30046580607","545.787082632054","676.581989239384","546.361814435544","676.685191102178","TH_ZINB_AIC"
"OTU17287.aic","1101.47213031812","4402.98442642937","1052.408686349","2529.10124727232","1053.2290643689","2529.24153421731","TH_ZINB_AIC"
"OTU6364.aic","363.414975016843","1499.34584518204","329.54829409902","437.230640764893","330.327740801264","437.83680798656","TH_ZINB_AIC"
"OTU25952.aic","705.941903619561","703.954749701062","279.7339132929","279.182399869057","280.200436775054","279.588042491399","TH_ZIP_AIC"
"OTU5482.aic","206.279444595396","423.648084528086","177.767829364673","175.767828090075","177.932849497405","175.932772508362","TH_ZIP_AIC"
"OTU30524.aic","273.456894959381","675.878763285191","246.014426720071","245.024613227822","246.564315719147","245.512946294437","TH_ZIP_AIC"
"OTU17082.aic","490.431277096737","488.447463984953","130.496849724355","128.496140853345","176.045832609731","174.045651898525","TH_ZIP_AIC"
"OTU15868.aic","659.608636608202","1198.32364277069","559.41862011874","589.451764945765","560.182165385787","589.816078287012","TH_ZINB_AIC"
"OTU3995.aic","2201.93182646157","2200.1988139676","472.460946948867","730.011318663964","473.751478298359","730.122326715415","TH_ZINB_AIC"
"OTU18066.aic","696.344273545081","694.364246073511","236.390227026464","219.848299873467","222.266471031482","220.26600116637","TH_ZIP_AIC"
"OTU27107.aic","4812.35530074267","4811.32003476197","515.192803812719","938.201278938153","515.801075741457","938.505968915727","TH_ZINB_AIC"
"OTU743.aic","1045.54251890874","1043.63988929925","343.614645150045","343.003553219759","343.68334666012","343.049944597476","TH_ZIP_AIC"
"OTU32831.aic","401.454866126705","5267.76999973717","372.266774049726","510.883069146159","355.86589071294","510.897150887726","TH_HNB_AIC"
"OTU30523.aic","230.512607271766","757.563703817868","206.642109104788","185.285332925014","187.611298248382","185.610702295346","TH_ZIP_AIC"
"OTU5106.aic","525.76892355995","1929.10733976728","428.728546673044","918.51581633451","429.324796986719","918.679887709948","TH_ZINB_AIC"
"OTU33766.aic","171.971532519037","408.569890124602","145.849680090416","143.849668925943","152.127707658554","150.127666176717","TH_ZIP_AIC"
"OTU17908.aic","637.79353086662","635.838080785726","187.027501269688","186.965507979327","187.593908483828","187.46743085858","TH_ZIP_AIC"
"OTU18405",NA,"2546.2887439207","797.939963479555","1341.23436623602","797.40614978753","1329.22039424008","TH_HNB_AIC"
"OTU13823.aic","804.151293849107","802.19437060296","139.94978661411",NA,NA,"218.21577605949","TH_ZINB_AIC"
"OTU25960.aic","198.946128289797","239.848875017754",NA,"135.237856707461","145.89209474623","143.891833828578","TH_ZIP_AIC"
"OTU13641.aic","1077.07196607046","4533.94524191693","989.654353622989","2378.48310601405","990.678722350753","2378.49478832185","TH_ZINB_AIC"
"OTU30748.aic","4814.81019751076","4813.22408492396","900.966213325452","1900.28815482363","901.730712749175","1900.52995184625","TH_ZINB_AIC"
"OTU5804.aic","539.056481034262","537.069058627192","146.012196938924","144.029012035055","146.30201193193","144.30874154425","TH_ZIP_AIC"
"OTU26167",NA,"534.227425905579","146.615719964104","144.615713341654","154.573091725598","152.572323883779","TH_ZIP_AIC"
"OTU16429.aic","150.5829721215","221.576464829918",NA,NA,NA,NA,"TH_NB_AIC"
"OTU19612.aic","1348.80419869861","1346.87355434717","355.051213452245","432.635150970798","355.681188085883","432.917974415227","TH_ZINB_AIC"
"OTU30588.aic","1042.7617325352","1040.7982850986","470.247350743916","468.247345136409","470.927759397026","468.926458489727","TH_ZIP_AIC"
"OTU25849.aic","1784.92206324999","4441.33404368041","1645.11120034558","3806.55853378249","1643.89464578515","3806.28974034925","TH_HNB_AIC"
"OTU6221.aic","363.872352427171","919.05548796592","321.568492503145","329.08353544223","321.514160197701","329.017615250624","TH_HNB_AIC"
"OTU32924.aic","183.897115568512","447.133786435658","154.655215468129","152.655214212998","154.807620292992","152.807606794662","TH_ZIP_AIC"
"OTU5250",NA,"434.673604117306","186.275785797033","226.29725029965","187.049656551632","227.419109261031","TH_ZINB_AIC"
"OTU30684",NA,"516.81312288626","153.286840619868","156.041321578511","153.416401832442","156.119713203335","TH_ZINB_AIC"
"OTU423.aic","1205.8590152096","1203.9266888139","229.060401846294","280.707520918955","249.668956809337","287.067097247922","TH_ZINB_AIC"
"OTU4998.aic","1737.55616967264","11640.32623489","1739.11902459752","10696.9888652244","1741.13196159833","10696.9891096408","TH_NB_AIC"
"OTU24335.aic","965.423907036744","2634.81684310869","882.97020216633","1178.21514493923","883.111895142438","1178.2275152989","TH_ZINB_AIC"
"OTU27328.aic","187.166237039984","551.809522016577","129.297205725526","127.297098203664","158.708658545827","156.708597761777","TH_ZIP_AIC"
"OTU5321.aic","296.368737141876","1239.36692050525","275.092218866412","319.964536723772","275.682888430274","320.285037906207","TH_ZINB_AIC"
"OTU29642.aic","1996.71977340586","4992.4752183026",NA,NA,NA,NA,"TH_NB_AIC"
"OTU14266.aic","157.648368452349","325.285352496712","136.277045159827","134.277044056913","136.620827679158","134.6204075833","TH_ZIP_AIC"
"OTU17577.aic","2163.41289395047","2161.5613220139","613.432953859057","806.748078926676","613.745264904477","806.822029608867","TH_ZINB_AIC"
"OTU30457.aic","492.664158675767","1125.89960886094","416.83932092009","417.701662812921","417.177591932456","417.975670210529","TH_ZINB_AIC"
"OTU29230.aic","1085.29747538818","3608.86506698334","914.151195055554","1476.24327474102","919.84298375101","1476.3016435688","TH_ZINB_AIC"
"OTU27033.aic","1126.74349156673","5867.29838397714","1035.79960020392","2841.40462093006","1035.7533373637","2841.40462944691","TH_HNB_AIC"
"OTU23504.aic","1447.76992254332","2956.90700216202","1385.98703690791","2229.93979458817","1386.07789428857","2229.94529238593","TH_ZINB_AIC"
"OTU23199.aic","446.962747097344","847.218006691371","346.216812672821","352.98829103946","346.449104113176","353.204088634344","TH_ZINB_AIC"
"OTU18025.aic","211.42482880127","514.150556281884","185.173746401778","183.173744856595","185.496730670047","183.496002088584","TH_ZIP_AIC"
"OTU23187.aic","491.593535782509","1510.61052380391","432.924236967055","504.472768558409","451.227423869102","513.049797493586","TH_ZINB_AIC"
"OTU30325.aic","1488.57637182582","2497.39248478808","1460.92845011688","2243.96623802485","1460.73772261856","2243.94920103938","TH_HNB_AIC"
"OTU23955.aic","216.817996192585","557.368933808138","188.697159135589","201.492728771444","188.904785630128","201.596428352464","TH_ZINB_AIC"
"OTU30363",NA,"1789.7561686776","168.994219028355","196.076626253391","168.941407211765","198.268211439951","TH_HNB_AIC"
"OTU30343.aic","499.569537314669","1586.30870587509","455.765833291774","501.024697267608","456.221151088393","501.306847587599","TH_ZINB_AIC"
"OTU20090.aic","1044.36425537388","1903.03000899835","926.29928643314","1048.55768901695","926.701472844066","1048.6606897699","TH_ZINB_AIC"
"OTU412.aic","473.722202426987","471.744511657941","111.913876935984","116.20608839229",NA,"149.01860503723","TH_ZINB_AIC"
"OTU24353.aic","369.49313121037","2548.95469808265","306.995180083531","384.67573619133","333.614940229492","394.061625838521","TH_ZINB_AIC"
"OTU30433.aic","1296.94504804138","2135.15351922909","1215.82629871966","1655.86308590566","1216.55097820188","1655.99893883096","TH_ZINB_AIC"
"OTU13998.aic","321.09613000286","799.642732266384","271.978607336611","279.471923386552","278.150113677803","283.189082203807","TH_ZINB_AIC"
"OTU2196.aic","453.97800069052","451.99802713736","187.202025459432","185.202022707215","187.894352178507","185.893470657661","TH_ZIP_AIC"
"OTU20471.aic","383.77692427288","904.602799540399","358.566270484036","399.039525411025","359.166710240099","399.437269400291","TH_ZINB_AIC"
"OTU33278.aic","2463.80478331912","2462.06180601317","436.727300816947","743.227388146969","467.07148481912","743.714842132352","TH_ZINB_AIC"
"OTU27296.aic","160.583221722966","362.223010358022","149.092254827693","150.258374936337","149.513749069547","150.620167985688","TH_ZINB_AIC"
"OTU33178.aic","1436.52530184506","4622.35368528939","1333.43509898132","2554.02952826591","1333.62116426026","2554.03561529476","TH_ZINB_AIC"
"OTU17890.aic","380.099060584791","378.120646658736",NA,NA,NA,NA,"TH_P_AIC"
"OTU13560.aic","1823.93690444349","15498.1630933145","1705.67784940848","9158.58210099573","1718.2238089256","9160.10643711651","TH_ZINB_AIC"
"OTU27171.aic","841.122189264697","1592.6632696715","731.464314698195","840.382300391796","731.911626833057","840.357793191987","TH_ZINB_AIC"
"OTU17092.aic","212.245795914601","459.06923140048","191.984881969725","189.984881763844","193.291605180435","191.291183690025","TH_ZIP_AIC"
"OTU30385.aic","307.455314049047","577.948754255652","269.593575298051","288.023178119259","269.811418523596","288.218151760422","TH_ZINB_AIC"
"OTU538.aic","6893.4534745859","6892.33664716399","841.177693754267","2391.31288071683","872.836228908026","2391.3128965529","TH_ZINB_AIC"
"OTU24046.aic","407.824632215773","2529.00091149086","329.839221813549","605.904461287807","389.467470495655","607.747217135355","TH_ZINB_AIC"
"OTU17025.aic","8094.47838316206","8093.82951801188","454.423473774823","1067.31626648459","454.40593418516","1067.30573422618","TH_HNB_AIC"
"OTU895.aic","648.269718883476","1636.82889545269","502.260447581779","537.427532432087","502.253291918063","537.401504726207","TH_HNB_AIC"
"OTU13656.aic","3752.20344415959","3750.44447163229","610.947619341948","1290.76552935256","627.111701971955","1290.76039812638","TH_ZINB_AIC"
"OTU20411.aic","374.073803716023","916.500193059997","323.006628638422","336.42585687983","323.262774318757","336.604772115947","TH_ZINB_AIC"
"OTU25141.aic","147.022849900648","216.829029874004",NA,NA,"123.848847767714",NA,"TH_HNB_AIC"
"OTU34091.aic","276.748841645294","848.579478585341","236.144348172365","237.703771089825","236.412640779352","237.908960400134","TH_ZINB_AIC"
"OTU30424.aic","856.513976756134","854.580815572623","287.255513140739","286.214254929492","287.687833326037","286.607888796528","TH_ZIP_AIC"
"OTU11559.aic","591.719512724748","1828.39034561215","541.170159083219","851.746417370859","541.71759915716","851.826591079608","TH_ZINB_AIC"
"OTU4490",NA,"2716.91144472539","465.325746105421","885.09207509931","465.611582326244","885.092000886943","TH_ZINB_AIC"
"OTU26355.aic","220.956377136923","411.444565707772",NA,NA,NA,NA,"TH_NB_AIC"
"OTU3973.aic","405.560338863987","403.589196882751","127.743406959716","118.444236176808","148.233127532118","152.908560599227","TH_ZIP_AIC"
"OTU28544.aic","482.497893979074","480.517825582339","204.069421201176","202.069419953585","204.204842047016","202.204303784097","TH_ZIP_AIC"
"OTU18036.aic","1757.54124209867","1755.64731435794","544.30560738401","625.501077821105","545.487020819751","626.266460445369","TH_ZINB_AIC"
"OTU11694.aic","190.765127057694","308.979420057928",NA,NA,NA,NA,"TH_NB_AIC"
"OTU17380.aic","1147.46077180942","4659.19332010023","1054.00106931124","2447.6649521967","1054.13091590626","2447.64814062239","TH_ZINB_AIC"
"OTU30846.aic","325.373513019411","323.381236188321","147.35117241862","145.35116738106","155.01410480773","153.014045451581","TH_ZIP_AIC"
"OTU30434.aic","2497.15776270826","2495.59509466124","464.141145296166","678.01830025479","465.145755565292","678.145347767231","TH_ZINB_AIC"
"OTU25933.aic","169.116263750442","344.151631650068","150.244327840207","151.828067192124","150.27362682056","151.773772043119","TH_ZINB_AIC"
"OTU22039.aic","164.923199295012","397.112092606378","150.078309410397","149.842305072577","153.543854832331","151.543820990575","TH_ZIP_AIC"
"OTU17699.aic","466.561950323671","2207.57988220028","445.034581116319","617.596574273545","445.171611054138","617.592236944462","TH_ZINB_AIC"
"OTU16119.aic","1123.55949720099","2514.91148372888","984.478248369006","1297.52899100438","984.605409466418","1297.54881864424","TH_ZINB_AIC"
"OTU20480.aic","290.240869923297","710.254212679115","245.286888805261","244.662980609833","245.543569687373","244.947790323448","TH_ZIP_AIC"
"OTU22268.aic","218.561133988679","676.230044798607",NA,"144.396152257794","179.653905336864","177.65329405227","TH_ZIP_AIC"
"OTU29550.aic","1750.57271093247","1748.64177365393","745.295511458509","819.497944982378","745.569455908552","819.504644725964","TH_ZINB_AIC"
"OTU13953.aic","750.886004914064","748.920276418439","145.960932083113","149.585324245407","146.486764078952","150.061819231648","TH_ZINB_AIC"
"OTU26507.aic","380.072977284308","1152.86883264475",NA,"333.485073108291","326.869256629912","408.057947768831","TH_HNB_AIC"
"OTU30387.aic","2189.15123031102","2187.29646345199","943.624738675102","1129.23852229455","943.91248102987","1129.29890191938","TH_ZINB_AIC"
"OTU30318.aic","330.689395346043","529.093420516816","282.584102750291","370.139456700271","282.675485749194","370.158293771925","TH_ZINB_AIC"
"OTU24369.aic","363.818446064364","1151.12327048316","316.56058020047","385.97574194135","317.03308565171","386.379487581206","TH_ZINB_AIC"
"OTU30381.aic","912.583946039933","1693.09651467998","807.311777972237","897.952486034084","808.303373220255","898.261098379153","TH_ZINB_AIC"
"OTU28331.aic","278.048633295962","978.736034727334","187.438361875471","195.95898104609","244.914333390863","253.399183759526","TH_ZINB_AIC"
"OTU17024.aic","2927.61911017541","2925.97416916036","225.044084641631","303.870537735591","317.833938022956","396.072138337101","TH_ZINB_AIC"
"OTU21268.aic","347.013424824587","660.454880004564","287.102389112674","304.996253469636","287.313480807747","305.148793037841","TH_ZINB_AIC"
"OTU30137.aic","1749.87498662925","5167.1397563079","1481.88843609266","2946.17232431325","1516.64094515669","2946.17232431189","TH_ZINB_AIC"
"OTU6003.aic","756.158673390295","2326.82489800947","698.458521132562","1245.17758794118","699.892656446415","1248.4865355504","TH_ZINB_AIC"
"OTU25383.aic","222.952010245418","495.432956070738","180.004323005349","192.465368404758","180.075319423669","192.507757566877","TH_ZINB_AIC"
"OTU920.aic","97.1514388455219","121.267519519268",NA,NA,NA,NA,"TH_NB_AIC"
"OTU30591.aic","223.638477205779","610.254491593844","202.178062677179","204.016585226294","202.468647951204","204.29476412808","TH_ZINB_AIC"
"OTU6895.aic","450.380413937316","1507.85042397568","406.196464332303","475.411965761017","406.128712483233","475.421046727527","TH_HNB_AIC"
"OTU17840",NA,"841.233896722707","149.175950824782","128.26916064627","136.152309036514","134.152176769116","TH_ZIP_AIC"
"OTU32596.aic","503.832516010851","501.841599629561","191.269395697801","222.053806493406","192.898289737076","224.05661374696","TH_ZINB_AIC"
"OTU18027.aic","6206.46013211086","470.110650254102","172.904199567215","185.381166886639","173.192608047956","185.597755286739","TH_ZINB_AIC"
"OTU21654.aic","1925.99067097076","1924.16624534683","380.779931223876","424.97702822246","412.786841644485","454.502823866679","TH_ZINB_AIC"
"OTU27237.aic","1154.27622934966","1152.35230615127","216.332909574924","248.329567284565","254.1107521465","279.439806380266","TH_ZINB_AIC"
"OTU34398.aic","161.139829992593","497.26757944607","150.189034313702","148.190447974501","151.004062975327","149.003665707022","TH_ZIP_AIC"
"OTU27283.aic","997.752376176417","995.810733583489","188.767636964084","226.998229098504","258.230919112481","296.505860632003","TH_ZINB_AIC"
"OTU17496.aic","1141.80348805744","5907.0209414488","1064.69569605524","2807.98390137468","1065.16459063765","2807.98602468898","TH_ZINB_AIC"
"OTU5433.aic","897.824749120977","895.88372190066","166.943295004998","178.442548072429","214.483055730157","225.82856833028","TH_ZINB_AIC"
"OTU17806.aic","2176.13914527418","2174.38621432556","362.220284611713","502.610944135043","363.032207014566","502.661349221439","TH_ZINB_AIC"
"OTU18169.aic","994.963005090365","993.037159365077","162.004896751489",NA,"208.570375235904","227.295467300322","TH_ZINB_AIC"
"OTU13756.aic","12461.0435561985","942.196565061785","291.668441825163","338.716811287545","291.889275280823","338.825684743091","TH_ZINB_AIC"
"OTU19953.aic","349.951789687025","2168.1315889314","318.007983410721","481.873045583833","329.48285831127","484.591064158275","TH_ZINB_AIC"
"OTU14827.aic","585.340454335324","583.34552027479","167.454794273534","171.129234173824","171.060629694142","174.1904558314","TH_ZINB_AIC"
"OTU30241.aic","1033.84843376853","3478.72077780708","900.71644742558","1120.68938461764","901.206406560961","1120.8411401388","TH_ZINB_AIC"
"OTU30122.aic","1341.02431485551","36953.945186538","1238.6697748463","20927.1330637991","1237.95219201868","20927.1330637895","TH_HNB_AIC"
"OTU22812.aic","448.944049209909","1185.48134806219","396.524567644376","418.119785418956","397.05944181513","418.430323954485","TH_ZINB_AIC"
"OTU7298.aic","328.351955989758","577.111698833424","209.881647316072","210.485647007829","210.112964513384","210.65470477459","TH_ZINB_AIC"
"OTU15675",NA,"422.331351348288",NA,"95.2522726079072","135.49885179215","133.498835120132","TH_ZIP_AIC"
"OTU22476.aic","122.561313097887","325.068833858504",NA,NA,NA,NA,"TH_NB_AIC"
"OTU23848.aic","622.179862412454","2980.23819320098","575.221848550247","2053.57082408622","575.401338711565","2053.72080954646","TH_ZINB_AIC"
"OTU21997.aic","1797.7283148618","3978.23628997192",NA,NA,NA,NA,"TH_NB_AIC"
"OTU17989.aic","493.204812982818","491.219534350592",NA,"124.046196032491","184.310637787304","182.451865204488","TH_ZIP_AIC"
"OTU31546.aic","893.832369240149","2275.91343194423","813.960920892851","1086.97687004251","814.532878630309","1087.03882879957","TH_ZINB_AIC"
"OTU1188.aic","485.893253913906","483.919471180656","136.39102177069","114.392223594883","159.217146910058","157.216619788261","TH_ZIP_AIC"
"OTU25903.aic","409.56876986697","767.341557218964","305.586597905096","308.737488386377","303.079323840161","308.767711316098","TH_HNB_AIC"
"OTU748",NA,"399.601208403155","115.925571153725","116.144282094853","124.826527237115","124.193210336935","TH_ZINB_AIC"
"OTU17965.aic","456.125","450.57787591166","158.207088480375","156.207087572141","158.403687059922","156.402733647958","TH_ZIP_AIC"
"OTU25917.aic","182.721081212286","277.089946265212","159.076133236543","162.40221864415","159.14712239181","162.447999127544","TH_ZINB_AIC"
"OTU30344.aic","1506.57659813575","1504.73157924642",NA,"306.953740359072","206.439972444296",NA,"TH_HNB_AIC"
"OTU21266.aic","1480.65799772274","1478.7491525699","451.93370274426","552.479809301362","453.088290854206","553.327420237322","TH_ZINB_AIC"
"OTU31205.aic","688.137914492041","2321.77928560701","540.870605203655","669.822055820731","566.113649933837","670.08874844642","TH_ZINB_AIC"
"OTU23454",NA,"540.654846439766","195.073015627366","193.755484782535","195.158460155162","193.832798462785","TH_ZIP_AIC"
"OTU5300",NA,"222.050699012581",NA,NA,"88.7461041517759","113.774260054682","TH_HNB_AIC"
"OTU17544.aic","997.591283234991","6052.21393700792","892.316503288565","2743.83682816105","900.610253101122","2743.56084870515","TH_ZINB_AIC"
"OTU20135.aic","152.833246333506","356.352060828618","143.771027582306","134.832302638154","140.475133267684","138.474923529014","TH_ZIP_AIC"
"OTU548.aic","2443.17461719224","2441.43269936913",NA,NA,"315.052858888534","412.519131531921","TH_HNB_AIC"
"OTU17506",NA,"1773.53207996599",NA,"619.324276011493","361.501855611138","656.646512892539","TH_HNB_AIC"
"OTU16774.aic","558.125287867811","3411.48348493409","442.918697395311","866.722397745825","519.058579769291","866.761350620258","TH_ZINB_AIC"
"OTU30121",NA,"12578.4385907338","1545.2862212199","11688.6155185237","1546.56628454938","11676.7601593377","TH_ZINB_AIC"
"OTU3602.aic","603.251756807077","1736.94592878615","482.628455294918","734.784539462795","482.702039859148","734.828987749372","TH_ZINB_AIC"
"OTU27028.aic","606.961027829433","1888.97533395478","544.08570780632","647.580084318528","544.542975731277","647.57438283213","TH_ZINB_AIC"
"OTU5399.aic","222.214552449571","606.366577203146","181.403300681755","179.620082860451","185.205544768783","184.262044115903","TH_ZIP_AIC"
"OTU32961.aic","732.353033842314","1689.51885402406","642.944884976325","737.579831131972","643.73816024711","737.692639674014","TH_ZINB_AIC"
"OTU5181.aic","884.284995407706","7444.38977829428","842.267363728739","3629.12598117821","842.755408417481","3629.12675850481","TH_ZINB_AIC"
"OTU30660.aic","182.466543262906","430.966329772161","122.09914062282","120.09912946932","128.894256025135","126.893774623247","TH_ZIP_AIC"
"OTU23534.aic","179.942966255261","217.444485865552","140.611194009657","130.277214066792","140.916776074159","138.997282763852","TH_ZIP_AIC"
"OTU30118.aic","2362.88562200755","21333.9931988474",NA,NA,NA,NA,"TH_NB_AIC"
"OTU30770",NA,"779.190819006773",NA,NA,NA,NA,"TH_P_AIC"
"OTU27132.aic","335.961987006677","2989.7716552793","265.537067030999","481.594692027685","321.528093423253","486.786620936552","TH_ZINB_AIC"
"OTU27268.aic","744.894016645616","742.959611403158","153.412169256284","160.625166437443",NA,NA,"TH_ZINB_AIC"
"OTU704.aic","1235.02726531331","1233.15001745327","265.942110494859","288.858513565909","266.479437310781","289.461915873414","TH_ZINB_AIC"
"OTU31000.aic","879.273605874041","877.338719511483","346.704040075192","346.72497312458","346.920320437116","346.93103897077","TH_ZINB_AIC"
"OTU20432.aic","2445.83895051386","2444.05128761078","539.044912430924","806.246927588875","551.880440889477","806.245574025026","TH_ZINB_AIC"
"OTU30662.aic","637.340353240259","635.34761213459","192.06169268861","190.061689072573","192.180640302402","190.180554711797","TH_ZIP_AIC"
"OTU2743.aic","1219.29805568484","2661.12423077832","1157.69433465406","1928.48498085051","1158.6007967304","1928.48608813971","TH_ZINB_AIC"
"OTU30393.aic","645.737175058548","1960.2122348933","578.252168317977","714.676066770939","580.334125284273","716.405533841466","TH_ZINB_AIC"
"OTU30596.aic","277.419240434504","857.362090466736","258.220847305788","271.061115291605","259.227762644772","271.908614711658","TH_ZINB_AIC"
"OTU27750",NA,"1845.22091017109","366.897048207822","540.325120508717","366.939235853986","539.974138955207","TH_ZINB_AIC"
"OTU5214.aic","487.754308404523","1768.47428468906","418.390968287838","462.919139270306","419.153029314959","463.53517841418","TH_ZINB_AIC"
"OTU5346.aic","642.262555292472","1620.71920701986","583.129618837629","707.886477079883","583.563476581095","707.968054395483","TH_ZINB_AIC"
"OTU26010.aic","163.129207767819","358.095871077974","131.216126917917","129.216125687995","143.665183120822","141.665140676648","TH_ZIP_AIC"
"OTU21831.aic","985.259610455411","2014.36872363742","846.808149599413","1079.29482058688","847.483952450955","1079.35960274881","TH_ZINB_AIC"
"OTU17050.aic","605.583891494782","603.613707051012","154.598006097056","152.597768969386","234.784015468604","232.783328273566","TH_ZIP_AIC"
"OTU8974.aic","194.826748523731","713.690337552653","189.477594164012","203.855620928326","190.143109672268","203.963910914146","TH_ZINB_AIC"
"OTU33328",NA,"2155.16045122453","792.514671373825","1411.69745335579","792.496214946624","1411.42469508664","TH_HNB_AIC"
"OTU17063.aic","113.718065639612","159.495860808216","95.7204079367868","93.7204075996692","96.6756341017856","94.675366819872","TH_ZIP_AIC"
"OTU5007.aic","4751.2786515858","4749.7673741666","1233.45722873175","2280.99057854045","1231.81794875063","2280.99028737781","TH_HNB_AIC"
"OTU4080.aic","304.610939444837","699.920231584303","247.966356500411","272.271279579395","247.914062723991","272.17511648749","TH_HNB_AIC"
"OTU33480.aic","953.05162091879","3614.46492993924","880.453644822898","1515.79871507847","880.761015193861","1515.81716573695","TH_ZINB_AIC"
"OTU17633.aic","482.60746323005","1471.04789579077","415.553298562923","461.239989689774","415.596585404551","461.251619787019","TH_ZINB_AIC"
"OTU30733",NA,"2207.03552020414","667.749717823713","1432.41662409337","669.80877861904","1432.87408831313","TH_ZINB_AIC"
"OTU11607.aic","1170.73433674328","6179.27820513922","1106.31998138474","3191.18884467886","1107.30140185306","3191.22831549577","TH_ZINB_AIC"
"OTU13755.aic","439.756864401819","1218.24473743016","407.990663735874","490.183296696302","409.129137537346","490.861685836795","TH_ZINB_AIC"
"OTU6085.aic","128.078462429243","285.219441207046","95.9658386409785","93.9657454421613","119.205231723712","117.205165966867","TH_ZIP_AIC"
"OTU17026.aic","2985.25535696372","2983.36306300494",NA,"653.837321512932","245.706771813892","655.141822763251","TH_HNB_AIC"
"OTU771.aic","232.175127591323","334.475859780379","173.747666322022","177.386190596545","173.899692636402","177.515184942751","TH_ZINB_AIC"
"OTU30127.aic","1745.39231260035","4167.26260251607","1659.79509765349","3287.96376029549","1659.89398179497","3287.94380207521","TH_ZINB_AIC"
"OTU13557.aic","1550.02259827082","27223.3612034362","1505.02066348525","15961.5400044785","1505.28969838885","15961.5400044872","TH_ZINB_AIC"
"OTU11608.aic","829.259584733751","827.306572767289","288.454888951436","286.643349356628","288.523354740845","286.704669080513","TH_ZIP_AIC"
"OTU5224.aic","293.814213278763","1010.06876792752","270.448504617081","285.749574407728","270.623195433982","285.820074194378","TH_ZINB_AIC"
"OTU18178.aic","193.915097174628","360.448408560152","153.192143230067","151.192141359308","153.183967325388","151.183185088638","TH_HP_AIC"
"OTU7201.aic","428.590833011148","871.984927674053","380.988321282122","394.786749346998","381.579344936103","395.137542673245","TH_ZINB_AIC"
"OTU5357.aic","661.478112828918","500.190064384861","171.860249944356","158.647454487928","161.035228983531","159.035133850445","TH_ZIP_AIC"
"OTU14050.aic","193.076685482869","191.082073018607",NA,NA,NA,NA,"TH_P_AIC"
"OTU21253.aic","638.389125504614","2575.03018373361","584.732676505846","797.863716789147","584.609532006792","797.846898300843","TH_HNB_AIC"
"OTU34086.aic","316.342872598902","986.614306155575","289.569014381458","301.658166702159","289.860098848635","301.773755797622","TH_ZINB_AIC"
"OTU2822.aic","429.996200152987","1703.40482951411","369.59754430997","645.909525358027","369.945898484618","646.230607663226","TH_ZINB_AIC"
"OTU17774.aic","353.243527200771","351.25249831976","147.917455631542","145.917454345025","149.000254748102","146.999945394983","TH_ZIP_AIC"
"OTU422.aic","228.545685858363","598.31457781703","195.986570778401","200.67692215516","196.363141648746","200.882065748621","TH_ZINB_AIC"
"OTU13649.aic","924.961303756997","2780.29635063989","850.798351295764","1292.68143384496","851.177979211743","1292.71755931261","TH_ZINB_AIC"
"OTU27064.aic","555.198356724655","3582.52932934028","485.979594109604","654.507973024191","486.022824896906","654.349494954388","TH_ZINB_AIC"
"OTU25972.aic","281.860286698329","556.954409162669",NA,NA,NA,NA,"TH_NB_AIC"
"OTU20716.aic","1722.46055741347","14654.3928353191","1691.73036966227","11474.2701883228","1691.50844836351","11474.2684128566","TH_HNB_AIC"
"OTU24363.aic","239.017184923336","750.206327970354","198.440825695101","201.539594361694","200.090321085005","202.857215492688","TH_ZINB_AIC"
"OTU18152.aic","229.37087435018","556.576572324174","203.759864943056","205.849690656149","203.950338824815","205.976924780526","TH_ZINB_AIC"
"OTU16792.aic","332.43037753494","330.441636099544","117.370109459779","97.2192209316133","127.526386651196","125.526382389599","TH_ZIP_AIC"
"OTU28032.aic","168.626207802291","440.29902060315","134.552740092548","148.460458023058","156.943363325613","154.94318283165","TH_ZINB_AIC"
"OTU27239.aic","310.093846628407","811.979887802762","278.558448007158","277.271592271822","279.349539007887","278.058390762109","TH_ZIP_AIC"
"OTU20507.aic","153.421212395246","422.235756293778","138.714172885037","137.732329073104","139.068121407041","138.001851041949","TH_ZIP_AIC"
"OTU25864.aic","733.163395281678","5377.13574809036","722.210342357521","2401.17729059298","723.258711846978","2401.2612848131","TH_ZINB_AIC"
"OTU27444.aic","174.136792301267","585.358854455943",NA,"121.64503995979","161.717986907543",NA,"TH_ZIP_AIC"
"OTU5276.aic","1395.88635716417","7633.53547837782","1354.68441180338","5598.89568777619","1355.85986056598","5598.94638261385","TH_ZINB_AIC"
"OTU5249.aic","1468.5303124846","1466.60914739542","407.568113265815","417.502541983071","407.742067405514","417.586630680465","TH_ZINB_AIC"
"OTU30721.aic","89.7068248214722","90.2810288837036",NA,NA,"82.6329508177913",NA,"TH_HNB_AIC"
"OTU25876.aic","525.623227588128","1276.48288744865","484.694014088357","607.697116550293","485.386017799671","608.170841924383","TH_ZINB_AIC"
"OTU13625.aic","1984.03065199947","11240.862335247","1968.82638307114","10465.5720938819","1968.32710764157","10465.5691601045","TH_HNB_AIC"
"OTU27024.aic","1433.92419290231","8309.1030213843","1344.92371326086","5628.62530377753","1391.11021664078","5628.69259460178","TH_ZINB_AIC"
"OTU22773.aic","1379.71813496621","1377.74611970222","644.897374932551","690.511319397339","645.369997071322","690.672126831404","TH_ZINB_AIC"
"OTU5335.aic","256.395379074175","345.461487160781",NA,NA,"242.464645367501","267.414096152751","TH_HNB_AIC"
"OTU18355.aic","827.116593839444","2322.80029458333","747.235767812181","1191.04517814432","749.389399333829","1191.24093247827","TH_ZINB_AIC"
"OTU27247.aic","741.552518120967","739.570225612452","147.67949168162","152.486656007855",NA,NA,"TH_ZINB_AIC"
"OTU4974",NA,"1073.04915460644","360.401494229235","745.36323017227","360.408317147222","745.287563707832","TH_ZINB_AIC"
"OTU27113.aic","144.147886038639","349.647535021984",NA,NA,NA,NA,"TH_NB_AIC"
"OTU11632.aic","505.022501879064","1605.80328820794","468.229075676036","603.255076031004","468.384959438408","603.211131708216","TH_ZINB_AIC"
"OTU22777.aic","1181.33768319001","1179.39986288432","436.703459069755","446.243067474729","436.917083952429","446.349031659914","TH_ZINB_AIC"
"OTU30703.aic","140.738969733936","243.536899672664","117.49283859375","115.492836846739","117.837979465029","115.837225691655","TH_ZIP_AIC"
"OTU27722.aic","567.492804977058","1384.95471541887","497.755367522058","559.331535404207","498.040114527229","559.453622441577","TH_ZINB_AIC"
"OTU624",NA,"1554.42435001591","413.334213339939","611.399868825123","414.210403525753","611.445104792859","TH_ZINB_AIC"
"OTU33336.aic","528.315618761695","1187.17977367486","458.300882016118","486.983595818986","458.607160940709","487.331695642133","TH_ZINB_AIC"
"OTU30149.aic","1875.02175977802","7350.59349145866",NA,NA,NA,NA,"TH_NB_AIC"
"OTU18189",NA,"1180.16205351125","365.791841963423","608.395996680007","365.613562924747","606.479944947524","TH_HNB_AIC"
"OTU23544.aic","397.564164449262","861.921014490987","328.976749503723","338.184883639395","329.665118117406","338.930747892223","TH_ZINB_AIC"
"OTU17616.aic","2774.27603891166","2772.47644427628","696.99681539875","944.967846933999","697.180532149233","944.978983859549","TH_ZINB_AIC"
"OTU18045.aic","272.687842137667","865.54289587298","237.701648901247","238.066720753223","237.709489681373","238.084667940915","TH_ZINB_AIC"
"OTU11555.aic","358.461162024564","904.80414667513","307.536568574505","328.042304615055","307.818132504953","328.147612135576","TH_ZINB_AIC"
"OTU27101.aic","603.24994631349","2262.34753703541","548.437519669184","697.40154687545","548.343770502921","697.331829220541","TH_HNB_AIC"
"OTU5277.aic","565.754725716886","2092.19175250623","504.827762407929","640.874930181179","505.097972338266","640.891183940328","TH_ZINB_AIC"
"OTU5154.aic","313.940427792433","573.313307442968","228.082342940707","227.057244389586","228.176976519194","227.133033452079","TH_ZIP_AIC"
"OTU27292.aic","156.85308303823","313.032199158542","139.743241661263","139.932037720576","143.100185981632","141.330301316932","TH_ZINB_AIC"
"OTU34323.aic","421.210623570252","419.23337681781",NA,NA,NA,NA,"TH_P_AIC"
"OTU24454.aic","582.690463872394","580.730268145962","200.951500521466","209.642979635456","208.717952008523","213.229978816545","TH_ZINB_AIC"
"OTU26871.aic","970.636419646442","968.757017772189","168.479376557718","232.705327030243","228.527895408215",NA,"TH_ZINB_AIC"
"OTU30303.aic","981.741412210082","2266.84585994918","830.720657802251","1176.25744124502","830.91870087381","1176.2782362003","TH_ZINB_AIC"
"OTU5500.aic","1214.72776254639","1212.80619335667","407.183399990331","457.806777076765","407.60101335241","457.97828959532","TH_ZINB_AIC"
"OTU30175.aic","563.92045823219","1609.21689687071","486.319799971253","525.56327198658","486.438388352751","525.596675705274","TH_ZINB_AIC"
"OTU17695.aic","897.834718810394","895.851219161277","205.51285833782","347.691441654096","206.331858755011","347.853629890349","TH_ZINB_AIC"
"OTU30378.aic","1272.2550627448","2231.08162260749","1197.04641521855","1633.50694879121","1197.38532840808","1633.51185177589","TH_ZINB_AIC"
"OTU9752.aic","1704.90521385267","8791.47722982951","1632.95836347831","6837.19380930652","1633.02097284537","6837.19569302277","TH_ZINB_AIC"
"OTU17612.aic","2697.72900611255","2696.02830944955","333.480775288288","441.581740008308","333.541420311483","441.605720085724","TH_ZINB_AIC"
"OTU27276.aic","640.758664121386","638.789917905267","137.735223861391",NA,"185.280254580558",NA,"TH_ZINB_AIC"
"OTU30162.aic","1646.46412410022","4918.96141197266","1553.2520377125","3763.48750558506","1553.53684524911","3763.4895646011","TH_ZINB_AIC"
"OTU13593.aic","1468.87758153349","2660.72538180375","1349.85056399529","2049.42819109508","1350.87886268283","2049.54720741475","TH_ZINB_AIC"
"OTU18279",NA,"795.317108248278","251.206245585232","276.340484519305","251.195397528581","276.402521542713","TH_HNB_AIC"
"OTU850.aic","267.642546337055","546.605727122391","224.590753885219","232.912935901937","224.791187837726","233.030812570686","TH_ZINB_AIC"
"OTU18533.aic","151.641981717657","286.187132317925",NA,NA,NA,NA,"TH_NB_AIC"
"OTU25950.aic","200.967908146337","311.747504696493","164.170780069943","163.84230938832","164.408552718066","164.05312485757","TH_ZIP_AIC"
