Starting weekly assessment for Javier, Week3

Current Marks = 100

Note that: 
(1) Major sections begin with a double "====" line 
(2) Subsections begin with a single "====" line 
(3) Code output or text file content are printed within single "*****" lines 

======================================================================
======================================================================
Your Git repo size this week is about 113.01 MiB on disk 

PART 1: Checking project workflow...

Found the following directories in parent directory: Week1, Assessment, Week5, Week2, Week4, .git, Week3

Found the following files in parent directory: README.txt, .gitignore

Checking for key files in parent directory...

Found .gitignore in parent directory, great! 

Printing contents of .gitignore:
**********************************************************************

*.pyc
*~
*.tmp
**********************************************************************

Found README in parent directory, named: README.txt

Printing contents of README.txt:
**********************************************************************
My CMEE 2016-17 Coursework Repository
Each week has its own directory with three directories:
Code: All the coding files for that week
Data: Files with data used in the scripts. Imputs
Sandbox: A box for trying things not necessarily clean or running ok
**********************************************************************

======================================================================
Looking for the weekly directories...

Found 5 weekly directories: Week1, Week2, Week3, Week4, Week5

The Week3 directory will be assessed 

======================================================================
======================================================================
PART 2: Checking weekly code and workflow...

======================================================================
Assessing WEEK3...

Found the following directories: Code, OtherCode, Data, Sandbox, Results

Found the following files: Untitled Document 1

Checking for readme file in weekly directory...

README file missing, 1 pt deducted

Current Marks = 99

Found 23 code files: browse.R, PP_Regress.R, apply1.R, sample.R, stochrickvect.R, run_get_TreeHeight.sh, TAutoCorrLatex.tex, boilerplate.R, TreeHeight.R, PP_Lattice.R, next.R, Vectorize1.R, break.R, basic_io.R, stochrick.R, try.R, apply2.R, get_TreeHeight.R, TAutoCorr.R, Vectorize2.R, DataWrang.R, control.R, TreeHeightFileImput.R

Found the following extra files: Rplots.pdf, .Rhistory, trees _treeheights.csv, .RData
What are they doing here?! 

0.5 pt deducted per extra file

Current Marks = 97.0

======================================================================
Testing script/code files...

======================================================================
Inspecting script file browse.R...

File contents are:
**********************************************************************
Exponential <- function(NO = 1, r = 1, generations = 100){
  # Runs a simulation of exponential growth
  # Returns a vector of length generations
  N <- rep(NA, generations)
  N[1] <- NO
  for (t in 2:generations){
    N[t] <- N[t-1] * exp(r)
#      browser()
  }
  return (N)
}
plot(Exponential(), type="l", main="Exponential growth")
**********************************************************************

Testing browse.R...

Output (only first 500 characters): 

**********************************************************************

**********************************************************************

Code ran without errors

Time consumed = 0.10449s

======================================================================
Inspecting script file PP_Regress.R...

File contents are:
**********************************************************************
require(ggplot2)
library(scales)

rm(list=ls())
MyDF <- as.data.frame(read.csv("../Data/EcolArchives-E089-51-D1.csv"))
                      
p <- ggplot(MyDF, aes(x = Prey.mass, y = Predator.mass, colour = Predator.lifestage)) +
  geom_smooth(fullrange = TRUE, method = "lm") +
  geom_point(shape = 3) +
  scale_fill_continuous(guide = guide_legend())+
  facet_grid(Type.of.feeding.interaction~.) +
  xlab("Prey Mass in grams") +
  ylab("Predator mass in grams") +
  scale_x_log10(breaks = c(10^-07, 10^-03, 10^01)) +
  scale_y_log10(breaks = c(10^-06, 10^-02, 10^02, 10^06)) +
  guides(colour = guide_legend(nrow = 1)) +
  theme_bw() +
  theme(legend.position = "bottom",
    legend.title = element_text(face = "bold", size = "7.5"), legend.text = element_text(size = 10),     
    panel.border = element_rect("grey", fill = NA, size = 0.5),
    plot.margin = unit(c(3,4,2,4), "cm"),
    axis.text.y = element_text(colour = "black"), legend.title = element_text(face="bold"), strip.background = element_rect(colour = "grey"))
pdf("../Results/PP_Regress_Figure.pdf")
print(p)
dev.off()

################# Loops
Results = NULL

uniquefeeding <- unique(MyDF$Type.of.feeding.interaction)
for (eachtype in uniquefeeding){
  SSetFeeding <- subset(MyDF, MyDF$Type.of.feeding.interaction == eachtype)
  uniquelifestage <- unique(SSetFeeding$Predator.lifestage)
  for (eachlifestage in uniquelifestage){
    SSetLifestage <- subset(SSetFeeding, Predator.lifestage == eachlifestage)
    model <- summary(lm(Predator.mass~Prey.mass, data = SSetLifestage))
    a<-is.null(model$fstatistic)
    if (a == TRUE){next}
    Results = rbind(Results, data.frame(eachtype, eachlifestage, Regression_intercept = model$coefficients[1], Regression_slope = model$coefficients[2], model$r.squared, model$fstatistic, p_value = model$coefficients[8]))
  }}
write.csv(Results, "../Results/PP_Regress_Results.csv", row.names = FALSE, col.names = TRUE)
**********************************************************************

Testing PP_Regress.R...

Output (only first 500 characters): 

**********************************************************************
null device 
          1 

**********************************************************************

Encountered error:
Loading required package: ggplot2
Warning message:
In qt((1 - level)/2, df) : NaNs produced
Warning message:
In write.csv(Results, "../Results/PP_Regress_Results.csv", row.names = FALSE,  :
  attempt to set 'col.names' ignored

======================================================================
Inspecting script file apply1.R...

File contents are:
**********************************************************************
## apply: applying the same function to rows/colums
# of a matrix

## Build a random matrix
M <- matrix(rnorm(100), 10, 10)

## Take the mean of each row
RowMeans <- apply(M, 1, mean)
print (RowMeans)

## How the variance
RowVars <- apply(M, 1, var)
print (RowVars)

## By column
ColumnMeans <- apply(M, 2, mean)
print (ColumnMeans)
**********************************************************************

Testing apply1.R...

Output (only first 500 characters): 

**********************************************************************
 [1]  0.51558037  0.03902186 -0.33771726  0.11730051  0.01657436  0.22720091
 [7] -0.09754612  0.51458656  0.23855484  0.25974544
 [1] 1.2801943 0.8243649 1.3357934 0.6919832 0.9907228 1.8421927 1.1077715
 [8] 1.0445046 0.4572715 1.2016081
 [1]  0.60514012 -0.05637099  0.17751714  0.33268295 -0.40584509  0.06620341
 [7]  0.54460551  0.37819293 -0.01866320 -0.13016132

**********************************************************************

Code ran without errors

Time consumed = 0.07314s

======================================================================
Inspecting script file sample.R...

File contents are:
**********************************************************************
## run a simulation that involves sampling from a population
x <- rnorm(50) # Generate your population
doit <- function(x){
  x <- sample(x, replace= TRUE)
  if(length(unique(x)) > 30) { # onle take mean
          #if sample was sufficient
      print(paste ("Mean of this sample was", as.character(mean(x))))
    }
}

## run 100 iterations using vectorization
result <- lapply(1:100, function(i) doit(x))

## Or using a for loop:

result <- vector("list", 100) # Creates a list with 100 empty places
for(i in 1:100) { #for each place ...
  result[[i]] <- doit(x) #run the function and put the
  # output of the function in that place of the list
  # [[i]] because is a list and that's the sintaxis
  #for a list [i] is for a vector
  }

**********************************************************************

Testing sample.R...

Output (only first 500 characters): 

**********************************************************************
[1] "Mean of this sample was -0.270582571092824"
[1] "Mean of this sample was -0.198394408802488"
[1] "Mean of this sample was -0.276578119781046"
[1] "Mean of this sample was -0.179771292162344"
[1] "Mean of this sample was -0.282367262906487"
[1] "Mean of this sample was -0.252601233022279"
[1] "Mean of this sample was -0.438870817883372"
[1] "Mean of this sample was -0.236645290562131"
[1] "Mean of this sample was -0.286296512084818"
[1] "Mean of this sample was -0.362578467632301"
[1] "Mean o
**********************************************************************

Code ran without errors

Time consumed = 0.07713s

======================================================================
Inspecting script file stochrickvect.R...

File contents are:
**********************************************************************
# Runs the stochastic (with gaussian fluctuations) Ricker Eqn .

rm(list=ls())

stochrickvect<-function(p0=1,r=1.2,K=1,sigma=0.2,numyears=100)
{
  #initialize
  N<-rep(NA,numyears)
  N[1]<-p0
  
  for (yr in 2:numyears) #for each pop, loop through the years
    {
    N[yr]<-N[yr-1]*exp(r*(1.0-N[yr-1]/K)+rnorm(1,0,sigma))
    }
  return(N)
}
plot(stochrickvect(numyears = 100), type="l")  
  
# Now write another code called stochrickvect that vectorizes the above 
# to the extent possible, with improved performance: 

print("Vectorized Stochastic Ricker takes:")
print(system.time(res2<-stochrickvect()))

**********************************************************************

Testing stochrickvect.R...

Output (only first 500 characters): 

**********************************************************************
[1] "Vectorized Stochastic Ricker takes:"
   user  system elapsed 
  0.000   0.000   0.001 

**********************************************************************

Code ran without errors

Time consumed = 0.11243s

======================================================================
Inspecting script file run_get_TreeHeight.sh...

File contents are:
**********************************************************************
#!/bin/bash
#Rscript reads scripts in R, verbose print information in progress
Rscript --verbose get_TreeHeight.R ../Data/trees.csv 
**********************************************************************

Testing run_get_TreeHeight.sh...

Output (only first 500 characters): 

**********************************************************************
'data.frame':	120 obs. of  4 variables:
 $ Species      : Factor w/ 10 levels "Alnus glutinosa",..: 9 10 6 5 2 2 9 4 10 10 ...
 $ Distance.m   : num  31.7 46 31.2 34.6 45.5 ...
 $ Angle.degrees: num  41.3 44.5 25.1 23.3 38.3 ...
 $ Tree.Height.m: num  27.8 45.2 14.7 14.9 36 ...

**********************************************************************

Encountered error:
running
  '/usr/lib/R/bin/R --slave --no-restore --file=get_TreeHeight.R --args ../Data/trees.csv'


======================================================================
Inspecting script file TAutoCorrLatex.tex...

File contents are:
**********************************************************************
\documentclass[10pt]{article}

\usepackage{graphicx}

\begin{document}

\title{Analysis of the correlation of Temperature of a time series}
\author{Javier Cuadrado Corz}

\maketitle


%--INTRODUCTION--%
\section{Methods}

In this practical I undertake the analysis of the time series of the mean of temperature in Key West, Florida for the 20 th century. The aim of the analysis if to find if there is a correlation between successive years, across the years. Pearson test was used to measure the correlation among the years. The usual p-value would not be valid for this type of data, because the temperature of one year may be influenced by the temperature of the previous year. We have to differenciate the effect of the general tendency of the temperature across the years, from the fact that successive years might have similar temperatures because they are next to each other.

In order to find out if the correlation is statistical significant, a randomization of the temperature was carried out 10000 times. 10.000 randomized times series of temperatures were obtained. Then, we carried out a Pearson correlation test for every one of the 10.000 randomized series. In order to know the statistical significance of the correlation, we need to find the number of randomized time series whose correlation was greater than the original one. The ratio of the number of randomized time series of temperature against the total number of randomized time series will give an idea of how statistical significant our measure of correlation it is.  

\section{Results}

As it can be seen in the figure the temperature of successive year are positively correlated. The Pearson Test of correlation of the time series of temperature was 0.32. The ratio that we calculated to find if this correlation test was statistically significant was 3e-04. So the correlation is statistically significant 

  
\begin{figure}
\begin{center}
\includegraphics[scale = 0.5]{/home/cmee19/Documents/cmeecoursework/Week3/Results/Tempabline.pdf}
\end{center}
\end{figure}

\end{document}
**********************************************************************

Testing TAutoCorrLatex.tex...

======================================================================
Inspecting script file boilerplate.R...

File contents are:
**********************************************************************
MyFunction <- function(Arg1, Arg2) {
  #Statements involving Arg1, Arg2:
  print(paste("Argument", as.character(Arg1), "is a", class(Arg1))) # print Arg1's type
  print(paste("Argument", as.character(Arg2), "is a", class(Arg2))) # print Arg2's type
  
  return (c(Arg1, Arg2)) #this is optional, but very useful
}

MyFunction(1,2) #test the function
MyFunction("Riki", "Tike") #A different test
**********************************************************************

Testing boilerplate.R...

Output (only first 500 characters): 

**********************************************************************
[1] "Argument 1 is a numeric"
[1] "Argument 2 is a numeric"
[1] 1 2
[1] "Argument Riki is a character"
[1] "Argument Tike is a character"
[1] "Riki" "Tike"

**********************************************************************

Code ran without errors

Time consumed = 0.06850s

======================================================================
Inspecting script file TreeHeight.R...

File contents are:
**********************************************************************
# This function calculates heights of trees
# from the angle of elevation and the distance
# from the base using the trigonometric formula
# height = distance * tan(radians)
# Arguments:
# degrees  The angle of elevation
# distance  The distance from base
#
# Output:
# The height of the tree, same units as "distance"

#Read the file keeping the headers 
TreesDF <- read.csv("../Data/trees.csv", header = TRUE)

#Function that calculates the height
TreeHeight <- function(degrees, distance) 
{
  radians <- degrees * pi / 180
  height <- distance * tan(radians)
  return (height)
}
#Creates a new column in the DF and adds
#the result of the function taking the second
#and the third columns of the DF as variables
#It has to be a vector, thas why as.vector
#because otherwise it put the results of every
#row in each one of the cells in the column
TreesDF$Tree.Height.m <-as.vector(c(TreeHeight(TreesDF$Angle.degrees, TreesDF$Distance.m)))

#Creates the a csv file and puts the DF in it
write.csv(TreesDF, "../Results/TreeHts.csv")

**********************************************************************

Testing TreeHeight.R...

Output (only first 500 characters): 

**********************************************************************

**********************************************************************

Code ran without errors

Time consumed = 0.07275s

======================================================================
Inspecting script file PP_Lattice.R...

File contents are:
**********************************************************************
library(lattice)
MyDF <- read.csv("../Data/EcolArchives-E089-51-D1.csv")

p1 <- densityplot(~log(Predator.mass) | Type.of.feeding.interaction, data=MyDF, xlab="Body Mass (kg)", ylab = "Count", main = "Predator Body Mass by feeding type")

p2 <- densityplot(~log(Prey.mass) | Type.of.feeding.interaction, data=MyDF, xlab="Body Mass (kg)", ylab = "Count", main = "Prey Body Mass by feeding type")


LogSizeRatio <- MyDF$Prey.mass / MyDF$Predator.mass
p3 <- densityplot(~log(LogSizeRatio) | Type.of.feeding.interaction, data=MyDF, xlab="Prey Body Mass / Predator Body Mass", ylab = "Count", main = "Prey Body Mass / Predator Body Mass ratio by feeding type")

pdf("../Results/Pred_Lattice.pdf")
print(p1)
print(p2)
print(p3)
dev.off()

# 
# Mean_Prey_Mass <- for (i in MyDF$Type.of.feeding.interaction){
#   mean(MyDF$Prey.mass)}
# Mean_Prey_Mass
# Median_Prey_Mass <- for (i in MyDF$Type.of.feeding.interaction){
#     median(MyDF$Prey.mass)}
# 
# Mean_Predator_Mass <- for (i in MyDF$Type.of.feeding.interaction){
#   mean(MyDF$Predator.mass)}
# 
# Mean_Predator_Mass <- for (i in MyDF$Type.of.feeding.interaction){
#   mean(MyDF$Predator.mass)}
# 
# Mean_Predator_Mass <- for (i in MyDF$Type.of.feeding.interaction){
#   mean(MyDF$Predator.mass)}
MyDF$Size.Ratio.Prey.Pred <- as.vector(c(MyDF$Prey.mass / MyDF$Predator.mass))
Mean_Prey_Mass <- tapply(MyDF$Prey.mass, MyDF$Type.of.feeding.interaction, mean)
Mean_Predator_Mass <- tapply(MyDF$Predator.mass, MyDF$Type.of.feeding.interaction, mean)
Mean_Size_Ratio <- tapply(MyDF$Size.Ratio.Prey.Pred, MyDF$Type.of.feeding.interaction, mean)

Median_Prey_Mass <- tapply(MyDF$Prey.mass, MyDF$Type.of.feeding.interaction, median)
Median_Predator_Mass <- tapply(MyDF$Predator.mass, MyDF$Type.of.feeding.interaction, median)
Median_Size_Ratio <- tapply(MyDF$Size.Ratio.Prey.Pred, MyDF$Type.of.feeding.interaction, median)

PPDF <- data.frame(Mean_Prey_Mass, Mean_Predator_Mass, Mean_Size_Ratio, Median_Prey_Mass, Median_Predator_Mass, Median_Size_Ratio)
write.csv(PPDF, "../Results/PP_Results.csv")**********************************************************************

Testing PP_Lattice.R...

Output (only first 500 characters): 

**********************************************************************
null device 
          1 

**********************************************************************

Code ran without errors

Time consumed = 1.60992s

======================================================================
Inspecting script file next.R...

File contents are:
**********************************************************************
## Using next
for (i in 1:10) {
  if ((i %% 2) == 0)
    next # pass to the next iteration of the loop
  # so it does not do the print
  print(i)
}
**********************************************************************

Testing next.R...

Output (only first 500 characters): 

**********************************************************************
[1] 1
[1] 3
[1] 5
[1] 7
[1] 9

**********************************************************************

Code ran without errors

Time consumed = 0.06939s

======================================================================
Inspecting script file Vectorize1.R...

File contents are:
**********************************************************************
M <- matrix(runif(1000000),1000,1000)

SumAllElements <- function(M){
  Dimensions <- dim(M)
  Tot <- 0
  for (i in 1:Dimensions[1]){
    for (j in 1:Dimensions[2]){
      Tot <- Tot + M[i,j]
      }}
    return (Tot)
  }

print(system.time(SumAllElements(M)))

print(system.time(sum(M)))
**********************************************************************

Testing Vectorize1.R...

Output (only first 500 characters): 

**********************************************************************
   user  system elapsed 
  0.412   0.000   0.411 
   user  system elapsed 
  0.004   0.000   0.001 

**********************************************************************

Code ran without errors

Time consumed = 0.56013s

======================================================================
Inspecting script file break.R...

File contents are:
**********************************************************************
i <- 0 # Initialize i
  while(i < Inf) { 
    if (i == 20) { 
      break} # break out of the while loop
    else {
      cat("i equals " , i , "\n")
      i <- i + 1 #update i
    }
    }
  **********************************************************************

Testing break.R...

Output (only first 500 characters): 

**********************************************************************
i equals  0 
i equals  1 
i equals  2 
i equals  3 
i equals  4 
i equals  5 
i equals  6 
i equals  7 
i equals  8 
i equals  9 
i equals  10 
i equals  11 
i equals  12 
i equals  13 
i equals  14 
i equals  15 
i equals  16 
i equals  17 
i equals  18 
i equals  19 

**********************************************************************

Code ran without errors

Time consumed = 0.07010s

======================================================================
Inspecting script file basic_io.R...

File contents are:
**********************************************************************
#A simple R script to illustrate R imput-output.
# Run lilne by line and check inputs outputs to understand what is 
# happening

MyData <- read.csv("../Data/trees.csv", header = TRUE) # import with headers

write.csv(MyData, "../Results/MyData.csv") # write it out as a new file

write.table(MyData[1,], file = "../Results/MyData.csv",append=TRUE) # Append the row 1 to it
                            #(you will get a warning)

write.csv(MyData, "../Results/MyData.csv", row.names=TRUE) #write row names

write.table(MyData, "../Results/MyData.csv", col.names=FALSE) # ignore column names
**********************************************************************

Testing basic_io.R...

Output (only first 500 characters): 

**********************************************************************

**********************************************************************

Encountered error:
Warning message:
In write.table(MyData[1, ], file = "../Results/MyData.csv", append = TRUE) :
  appending column names to file

======================================================================
Inspecting script file stochrick.R...

File contents are:
**********************************************************************
# Runs the stochastic (with gaussian fluctuations) Ricker Eqn .

rm(list=ls())

stochrick<-function(p0=runif(1000,.5,1.5),r=1.2,K=1,sigma=0.2,numyears=100)
{
  #initialize
  N<-matrix(NA,numyears,length(p0))
  N[1,]<-p0
  
  for (pop in 1:length(p0)) #loop through the populations
  {
    for (yr in 2:numyears) #for each pop, loop through the years
    {
      N[yr,pop]<-N[yr-1,pop]*exp(r*(1-N[yr-1,pop]/K)+rnorm(1,0,sigma))
    }
  } 
  return(N)
}
 

plot(stochrick)  
  
# Now write another code called stochrickvect that vectorizes the above 
# to the extent possible, with improved performance: 

print("Vectorized Stochastic Ricker takes:")
print(system.time(res2<-stochrick()))

**********************************************************************

Testing stochrick.R...

Output (only first 500 characters): 

**********************************************************************

**********************************************************************

Encountered error:
Error in curve(expr = x, from = from, to = to, xlim = xlim, ylab = ylab,  : 
  'expr' did not evaluate to an object of length 'n'
Calls: plot -> plot.function -> curve
Execution halted

======================================================================
Inspecting script file try.R...

File contents are:
**********************************************************************
## run a simulation that involves sampling from a population with try
x <- rnorm(50) # Generate your population
doit <- function(x){
  x <- sample(x, replace= TRUE)
  if(length(unique(x)) > 30) { # onle take mean
          #if sample was sufficient
      print(paste ("Mean of this sample was", as.character(mean(x))))
    }
else {
  stop("Couldn't calculate mean: too few unique points!")
}
  }

## Try using "try" with vectorization:
result <- lapply(1:100, function(i) try(doit(x), FALSE))


## Or using a for loop:

result <- vector("list", 100) # Creates a list with 100 empty places
for(i in 1:100) { #for each place ...
  result[[i]] <- try(doit(x), FALSE) 
  #Try to run the function and if it stops
  # because there is an error of because
  #we put "stop" it tries the next iteration 
  }

**********************************************************************

Testing try.R...

Output (only first 500 characters): 

**********************************************************************
[1] "Mean of this sample was 0.00289779481224045"
[1] "Mean of this sample was -0.0812939531266042"
[1] "Mean of this sample was 0.046303864110809"
[1] "Mean of this sample was 0.141193741030938"
[1] "Mean of this sample was -0.0738403976088536"
[1] "Mean of this sample was -0.174550737774668"
[1] "Mean of this sample was -0.180527050608239"
[1] "Mean of this sample was 0.158644166831454"
[1] "Mean of this sample was -0.00638164709735604"
[1] "Mean of this sample was 0.0120935283751257"
[1] "Mean
**********************************************************************

Encountered error:
Error in doit(x) : Couldn't calculate mean: too few unique points!
Error in doit(x) : Couldn't calculate mean: too few unique points!
Error in doit(x) : Couldn't calculate mean: too few unique points!
Error in doit(x) : Couldn't calculate mean: too few unique points!
Error in doit(x) : Couldn't calculate mean: too few unique points!
Error in doit(x) : Couldn't calculate mean: too few unique points!
Error in doit(x) : Couldn't calculate mean: too few unique points!
Error in doit(x) : Couldn't calculate mean: too few unique points!
Error in doit(x) : Couldn't calculate mean: too few unique points!
Error in doit(x) : Couldn't calculate mean: too few unique points!
Error in doit(x) : Couldn't calculate mean: too few unique points!
Error in doit(x) : Couldn't calculate mean: too few unique points!
Error in doit(x) : Couldn't calculate mean: too few unique points!
Error in doit(x) : Couldn't calculate mean: too few unique points!
Error in doit(x) : Couldn't calculate mean: too few unique points!
Error in doit(x) : Couldn't calculate mean: too few unique points!
Error in doit(x) : Couldn't calculate mean: too few unique points!
Error in doit(x) : Couldn't calculate mean: too few unique points!
Error in doit(x) : Couldn't calculate mean: too few unique points!
Error in doit(x) : Couldn't calculate mean: too few unique points!
Error in doit(x) : Couldn't calculate mean: too few unique points!
Error in doit(x) : Couldn't calculate mean: too few unique points!
Error in doit(x) : Couldn't calculate mean: too few unique points!
Error in doit(x) : Couldn't calculate mean: too few unique points!
Error in doit(x) : Couldn't calculate mean: too few unique points!
Error in doit(x) : Couldn't calculate mean: too few unique points!
Error in doit(x) : Couldn't calculate mean: too few unique points!
Error in doit(x) : Couldn't calculate mean: too few unique points!
Error in doit(x) : Couldn't calculate mean: too few unique points!
Error in doit(x) : Couldn't calculate mean: too few unique points!
Error in doit(x) : Couldn't calculate mean: too few unique points!
Error in doit(x) : Couldn't calculate mean: too few unique points!
Error in doit(x) : Couldn't calculate mean: too few unique points!
Error in doit(x) : Couldn't calculate mean: too few unique points!
Error in doit(x) : Couldn't calculate mean: too few unique points!
Error in doit(x) : Couldn't calculate mean: too few unique points!
Error in doit(x) : Couldn't calculate mean: too few unique points!
Error in doit(x) : Couldn't calculate mean: too few unique points!
Error in doit(x) : Couldn't calculate mean: too few unique points!
Error in doit(x) : Couldn't calculate mean: too few unique points!
Error in doit(x) : Couldn't calculate mean: too few unique points!
Error in doit(x) : Couldn't calculate mean: too few unique points!
Error in doit(x) : Couldn't calculate mean: too few unique points!
Error in doit(x) : Couldn't calculate mean: too few unique points!
Error in doit(x) : Couldn't calculate mean: too few unique points!
Error in doit(x) : Couldn't calculate mean: too few unique points!
Error in doit(x) : Couldn't calculate mean: too few unique points!
Error in doit(x) : Couldn't calculate mean: too few unique points!
Error in doit(x) : Couldn't calculate mean: too few unique points!
Error in doit(x) : Couldn't calculate mean: too few unique points!
Error in doit(x) : Couldn't calculate mean: too few unique points!
Error in doit(x) : Couldn't calculate mean: too few unique points!
Error in doit(x) : Couldn't calculate mean: too few unique points!
Error in doit(x) : Couldn't calculate mean: too few unique points!
Error in doit(x) : Couldn't calculate mean: too few unique points!

======================================================================
Inspecting script file apply2.R...

File contents are:
**********************************************************************
SomeOperation <- function(v){
  if (sum(v) > 0){
    return (v * 100)
  }
return(v)
  }

M <- matrix(rnorm(100), 10, 10)
print (apply(M, 1, SomeOperation))
**********************************************************************

Testing apply2.R...

Output (only first 500 characters): 

**********************************************************************
             [,1]       [,2]       [,3]        [,4]       [,5]       [,6]
 [1,] -0.23727927  0.1271400  -27.38599 -1.07833147 -1.5493492 187.621239
 [2,]  0.65165563  0.4554533   69.65061  0.25016921 -0.9933152 -21.430804
 [3,]  0.55653865  0.2316675  233.66373 -1.12474832  0.2660067  -2.960175
 [4,]  0.31148559 -2.1457890  -65.71587 -1.01901424 -0.0338785 -19.425668
 [5,]  0.07730837  0.9831975  182.01464  0.14340167  1.1269089   9.153155
 [6,] -2.09954601  0.2183655  -68.76576 -1.44947141  0.29
**********************************************************************

Code ran without errors

Time consumed = 0.06856s

======================================================================
Inspecting script file get_TreeHeight.R...

File contents are:
**********************************************************************
# This function calculates heights of trees
# from the angle of elevation and the distance
# from the base using the trigonometric formula
# height = distance * tan(radians)
# Arguments:
# degrees  The angle of elevation
# distance  The distance from base
#
# Output:
# The height of the tree, same units as "distance"

#Takes the file from the impout using args 
args = commandArgs(trailingOnly = TRUE)
#Read the file, which is store in args
#and keeping the headers
TreesDF <- read.csv(args[1], header = TRUE)

#Function that calculates the height
TreeHeight <- function(degrees, distance) 
{
  radians <- degrees * pi / 180
  height <- distance * tan(radians)
  return (height)
}
#Creates a new column in the DF and adds
#the result of the function taking the second
#and the third columns of the DF as variables
#It has to be a vector, thas why as.vector
#because otherwise it put the results of every
#row in each one of the cells in the column
TreesDF$Tree.Height.m <-as.vector(c(TreeHeight(TreesDF$Angle.degrees, TreesDF$Distance.m)))


library(tools) #import tools like file_path_sans_ext
#file_path_sans_ext strip the extension
#basename takes just the name of the file 
#with the extension.
#Creates the a csv file and puts the DF in it
write.csv(TreesDF, paste("../Results/",file_path_sans_ext(basename(args[1])),"_treeheights.csv"))
str(TreesDF)
**********************************************************************

Testing get_TreeHeight.R...

Output (only first 500 characters): 

**********************************************************************

**********************************************************************

Encountered error:
Error in file(file, "rt") : cannot open the connection
Calls: read.csv -> read.table -> file
In addition: Warning message:
In file(file, "rt") : cannot open file 'NA': No such file or directory
Execution halted

======================================================================
Inspecting script file TAutoCorr.R...

File contents are:
**********************************************************************
require(ggplot2)
require(dplyr)

load("../Data/KeyWestAnnualMeanTemperature.RData")

ats$YearShift <-lead(ats$Year, 1)
ats$TempShift <-lead(ats$Temp, 1)
p1 <- cor.test(x=ats$Temp, y=ats$TempShift, method = "pearson")
p1
pdf("../Results/Tempabline.pdf")
ggplot(ats, aes(x = Temp, y = TempShift)) + geom_point() + geom_abline()
dev.off()
random <- vector()
for (i in (1:10000)){
  TempRandom <- sample(ats$Temp, length(ats$Temp), replace = FALSE)
  TempRandomShift <-lead(TempRandom, 1)
  p2 <- cor.test(x=TempRandom, y=TempRandomShift, method = "pearson")
  random <- rbind(random, p2$estimate)
}  

GreaterC <- subset(random, random >= p1$estimate)
approximatep_value <- length(GreaterC)/10000
approximatep_value
  
**********************************************************************

Testing TAutoCorr.R...

Output (only first 500 characters): 

**********************************************************************

	Pearson's product-moment correlation

data:  ats$Temp and ats$TempShift
t = 3.3982, df = 97, p-value = 0.0009852
alternative hypothesis: true correlation is not equal to 0
95 percent confidence interval:
 0.1376191 0.4919077
sample estimates:
      cor 
0.3261697 

null device 
          1 
[1] 4e-04

**********************************************************************

Encountered error:
Loading required package: ggplot2
Loading required package: dplyr

Attaching package: ‘dplyr’

The following objects are masked from ‘package:stats’:

    filter, lag

The following objects are masked from ‘package:base’:

    intersect, setdiff, setequal, union

Warning message:
Removed 1 rows containing missing values (geom_point). 

======================================================================
Inspecting script file Vectorize2.R...

File contents are:
**********************************************************************
Ricker <- function(N0 = 1, r=1, k=10, generations=50)
{
  # Runs a simulation of the ricker model
  # Returns a vector of length generations
  N <- rep(NA, generations) # Creates a vector of NA
  
  N[1] <- N0
  for (t in 2:generations)
  {
    N[t] <- N[t-1] * exp(r*(1.0-(N[t-1]/k)))
  }
  return (N)
}
plot(Ricker(generations = 10), type = "l")
**********************************************************************

Testing Vectorize2.R...

Output (only first 500 characters): 

**********************************************************************

**********************************************************************

Code ran without errors

Time consumed = 0.10220s

======================================================================
Inspecting script file DataWrang.R...

File contents are:
**********************************************************************
################################################################
################## Wrangling the Pound Hill Dataset ############
################################################################

############# Load the dataset ###############
# header = false because the raw data don't have real headers
MyData <- as.matrix(read.csv("../Data/PoundHillData.csv",header = F)) 

# header = true because we do have metadata headers
MyMetaData <- read.csv("../Data/PoundHillMetaData.csv",header = T, sep=";", stringsAsFactors = F)

############# Inspect the dataset ###############
head(MyData)
dim(MyData)
str(MyData)

############# Transpose ###############
MyData <- t(MyData)
head(MyData)
dim(MyData)"

############# Replace species absences with zeros ###############
MyData[MyData == ""] = 0

############# Convert raw matrix to data frame ###############

TempData <- as.data.frame(MyData[-1,],stringsAsFactors = F) #stringsAsFactors = F is important!
colnames(TempData) <- MyData[1,] # assign column names from original data

############# Convert from wide to long format  ###############
require(reshape2) # load the reshape2 package

?melt #check out the melt function
MyWrangledData <- melt(TempData, id=c("Cultivation", "Block", "Plot", "Quadrat"), 
variable.name = "Species", value.name = "Count")
MyWrangledData[, "Cultivation"] <- as.factor(MyWrangledData[, "Cultivation"])
MyWrangledData[, "Block"] <- as.factor(MyWrangledData[, "Block"])
MyWrangledData[, "Plot"] <- as.factor(MyWrangledData[, "Plot"])
MyWrangledData[, "Quadrat"] <- as.factor(MyWrangledData[, "Quadrat"])
MyWrangledData[, "Count"] <- as.numeric(MyWrangledData[, "Count"])

str(MyWrangledData)
head(MyWrangledData)
dim(MyWrangledData)

############# Start exploring the data (extend the script below)!  ###############
**********************************************************************

Testing DataWrang.R...

Output (only first 500 characters): 

**********************************************************************
     V1                     V2        V3        V4        V5        V6       
[1,] "Cultivation"          "october" "october" "october" "october" "october"
[2,] "Block"                "a"       "a"       "a"       "a"       "a"      
[3,] "Plot"                 "1"       "1"       "1"       "1"       "1"      
[4,] "Quadrat"              "Q1"      "Q2"      "Q3"      "Q4"      "Q5"     
[5,] "Achillea millefolium" "4"       "8"       "3"       "20"      "6"      
[6,] "Agrostis gigantea"    ""   
**********************************************************************

Encountered error:
Error: unexpected string constant in:
"############# Replace species absences with zeros ###############
MyData[MyData == ""
Execution halted

======================================================================
Inspecting script file control.R...

File contents are:
**********************************************************************
## If statement
a <- TRUE
if (a == TRUE){
  print ("a is TRUE")
} else {
    print ("a is FALSE")
}

## On a single line
z = 0.2 <- runif(1) ##random number
if (z <= 0.5) {
print ("Less than a quarter")
}

## For loop using a sequence
for (i in 1:100){
  j <- i * i
  print(paste(i, " squared is ", j))
}

## For loop over vector of strings
for(species in c('Heliodoxa rubinoides',
                 'Boisssonneaua jardini',
                 'Sula nebouxii'))
{
  print(paste('The species is', species))
}

## for loop using a vector
v1 <- c("a","bc","def")
for (i in v1){
  print(i)
}

## While loop
i <- 0
while (i<100){
  i <- i+1
  print(i^2)
}**********************************************************************

Testing control.R...

Output (only first 500 characters): 

**********************************************************************
[1] "a is TRUE"

**********************************************************************

Encountered error:
Error in 0.2 <- runif(1) : invalid (do_set) left-hand side to assignment
Execution halted

======================================================================
Inspecting script file TreeHeightFileImput.R...

File contents are:
**********************************************************************
# This function calculates heights of trees
# from the angle of elevation and the distance
# from the base using the trigonometric formula
# height = distance * tan(radians)
# Arguments:
# degrees  The angle of elevation
# distance  The distance from base
#
# Output:
# The height of the tree, same units as "distance"

TreeHeight <- function(degrees, distance) 
{
  radians <- degrees * pi / 180
  height <- distance * tan(radians)
  print(paste("Tree height is:", height))
  return (height)
}

TreeHeight(37, 40)
**********************************************************************

Testing TreeHeightFileImput.R...

Output (only first 500 characters): 

**********************************************************************
[1] "Tree height is: 30.1421620041118"
[1] 30.14216

**********************************************************************

Code ran without errors

Time consumed = 0.06985s

======================================================================
======================================================================
Finished running scripts

Ran into 9 errors

======================================================================
======================================================================

FINISHED WEEKLY ASSESSMENT

Current Marks for the Week = 97.0

NOTE THAT THESE ARE NOT THE FINAL MARKS FOR THE WEEK, BUT UPPER BOUND ON THE MARKS!